,TURNOS,DIA,PUNTO_RETIRO,COD_PUNTO_RETIRO,CAPACIDAD
0,0,0,0,4,20
1,1,0,0,4,20
2,2,0,0,4,20
3,0,1,0,4,20
4,1,1,0,4,20
5,2,1,0,4,20
6,0,2,0,4,20
7,1,2,0,4,20
8,2,2,0,4,20
9,0,3,0,4,20
10,1,3,0,4,20
11,2,3,0,4,20
12,0,4,0,4,20
13,1,4,0,4,20
14,2,4,0,4,20
15,0,5,0,4,8
16,1,5,0,4,8
17,0,6,0,4,20
18,1,6,0,4,20
19,2,6,0,4,20
20,0,7,0,4,20
21,1,7,0,4,20
22,2,7,0,4,20
23,0,8,0,4,20
24,1,8,0,4,20
25,2,8,0,4,20
26,0,9,0,4,20
27,1,9,0,4,20
28,2,9,0,4,20
29,0,10,0,4,20
30,1,10,0,4,20
31,2,10,0,4,20
32,0,11,0,4,8
33,1,11,0,4,8
34,0,12,0,4,20
35,1,12,0,4,20
36,2,12,0,4,20
37,0,13,0,4,20
38,1,13,0,4,20
39,2,13,0,4,20
40,0,14,0,4,20
41,1,14,0,4,20
42,2,14,0,4,20
43,0,15,0,4,20
44,1,15,0,4,20
45,2,15,0,4,20
46,0,16,0,4,20
47,1,16,0,4,20
48,2,16,0,4,20
49,0,17,0,4,8
50,1,17,0,4,8
51,0,18,0,4,20
52,1,18,0,4,20
53,2,18,0,4,20
54,0,19,0,4,20
55,1,19,0,4,20
56,2,19,0,4,20
57,0,20,0,4,20
58,1,20,0,4,20
59,2,20,0,4,20
60,0,21,0,4,20
61,1,21,0,4,20
62,2,21,0,4,20
63,0,22,0,4,20
64,1,22,0,4,20
65,2,22,0,4,20
66,0,23,0,4,8
67,1,23,0,4,8
68,0,24,0,4,20
69,1,24,0,4,20
70,2,24,0,4,20
71,0,25,0,4,20
72,1,25,0,4,20
73,2,25,0,4,20
74,0,26,0,4,20
75,1,26,0,4,20
76,2,26,0,4,20
77,0,27,0,4,20
78,1,27,0,4,20
79,2,27,0,4,20
80,0,28,0,4,20
81,1,28,0,4,20
82,2,28,0,4,20
83,0,29,0,4,8
84,1,29,0,4,8
85,0,30,0,4,20
86,1,30,0,4,20
87,2,30,0,4,20
88,0,31,0,4,20
89,1,31,0,4,20
90,2,31,0,4,20
91,0,32,0,4,20
92,1,32,0,4,20
93,2,32,0,4,20
94,0,33,0,4,20
95,1,33,0,4,20
96,2,33,0,4,20
97,0,34,0,4,20
98,1,34,0,4,20
99,2,34,0,4,20
100,0,35,0,4,8
101,1,35,0,4,8
102,0,36,0,4,20
103,1,36,0,4,20
104,2,36,0,4,20
105,0,37,0,4,20
106,1,37,0,4,20
107,2,37,0,4,20
108,0,38,0,4,20
109,1,38,0,4,20
110,2,38,0,4,20
111,0,39,0,4,20
112,1,39,0,4,20
113,2,39,0,4,20
114,0,40,0,4,20
115,1,40,0,4,20
116,2,40,0,4,20
117,0,41,0,4,8
118,1,41,0,4,8
119,0,42,0,4,20
120,1,42,0,4,20
121,2,42,0,4,20
122,0,43,0,4,20
123,1,43,0,4,20
124,2,43,0,4,20
125,0,44,0,4,20
126,1,44,0,4,20
127,2,44,0,4,20
128,0,45,0,4,20
129,1,45,0,4,20
130,2,45,0,4,20
131,0,46,0,4,20
132,1,46,0,4,20
133,2,46,0,4,20
134,0,47,0,4,8
135,1,47,0,4,8
136,0,48,0,4,20
137,1,48,0,4,20
138,2,48,0,4,20
139,0,49,0,4,20
140,1,49,0,4,20
141,2,49,0,4,20
142,0,50,0,4,20
143,1,50,0,4,20
144,2,50,0,4,20
145,0,51,0,4,20
146,1,51,0,4,20
147,2,51,0,4,20
148,0,52,0,4,20
149,1,52,0,4,20
150,2,52,0,4,20
151,0,53,0,4,8
152,1,53,0,4,8
153,0,54,0,4,20
154,1,54,0,4,20
155,2,54,0,4,20
156,0,55,0,4,20
157,1,55,0,4,20
158,2,55,0,4,20
159,0,56,0,4,20
160,1,56,0,4,20
161,2,56,0,4,20
162,0,57,0,4,20
163,1,57,0,4,20
164,2,57,0,4,20
165,0,58,0,4,20
166,1,58,0,4,20
167,2,58,0,4,20
168,0,59,0,4,8
169,1,59,0,4,8
170,0,60,0,4,20
171,1,60,0,4,20
172,2,60,0,4,20
173,0,61,0,4,20
174,1,61,0,4,20
175,2,61,0,4,20
176,0,62,0,4,20
177,1,62,0,4,20
178,2,62,0,4,20
179,0,63,0,4,20
180,1,63,0,4,20
181,2,63,0,4,20
182,0,64,0,4,20
183,1,64,0,4,20
184,2,64,0,4,20
185,0,65,0,4,8
186,1,65,0,4,8
187,0,66,0,4,20
188,1,66,0,4,20
189,2,66,0,4,20
190,0,67,0,4,20
191,1,67,0,4,20
192,2,67,0,4,20
193,0,68,0,4,20
194,1,68,0,4,20
195,2,68,0,4,20
196,0,69,0,4,20
197,1,69,0,4,20
198,2,69,0,4,20
199,0,70,0,4,20
200,1,70,0,4,20
201,2,70,0,4,20
202,0,71,0,4,8
203,1,71,0,4,8
204,0,72,0,4,20
205,1,72,0,4,20
206,2,72,0,4,20
207,0,73,0,4,20
208,1,73,0,4,20
209,2,73,0,4,20
210,0,74,0,4,20
211,1,74,0,4,20
212,2,74,0,4,20
213,0,75,0,4,20
214,1,75,0,4,20
215,2,75,0,4,20
216,0,76,0,4,20
217,1,76,0,4,20
218,2,76,0,4,20
219,0,77,0,4,8
220,1,77,0,4,8
221,0,78,0,4,20
222,1,78,0,4,20
223,2,78,0,4,20
224,0,79,0,4,20
225,1,79,0,4,20
226,2,79,0,4,20
227,0,80,0,4,20
228,1,80,0,4,20
229,2,80,0,4,20
230,0,81,0,4,20
231,1,81,0,4,20
232,2,81,0,4,20
233,0,82,0,4,20
234,1,82,0,4,20
235,2,82,0,4,20
236,0,83,0,4,8
237,1,83,0,4,8
238,0,84,0,4,20
239,1,84,0,4,20
240,2,84,0,4,20
241,0,85,0,4,20
242,1,85,0,4,20
243,2,85,0,4,20
244,0,86,0,4,20
245,1,86,0,4,20
246,2,86,0,4,20
247,0,87,0,4,20
248,1,87,0,4,20
249,2,87,0,4,20
250,0,88,0,4,20
251,1,88,0,4,20
252,2,88,0,4,20
253,0,89,0,4,8
254,1,89,0,4,8
255,0,90,0,4,20
256,1,90,0,4,20
257,2,90,0,4,20
258,0,91,0,4,20
259,1,91,0,4,20
260,2,91,0,4,20
261,0,92,0,4,20
262,1,92,0,4,20
263,2,92,0,4,20
264,0,93,0,4,20
265,1,93,0,4,20
266,2,93,0,4,20
267,0,94,0,4,20
268,1,94,0,4,20
269,2,94,0,4,20
270,0,95,0,4,8
271,1,95,0,4,8
272,0,96,0,4,20
273,1,96,0,4,20
274,2,96,0,4,20
275,0,97,0,4,20
276,1,97,0,4,20
277,2,97,0,4,20
278,0,98,0,4,20
279,1,98,0,4,20
280,2,98,0,4,20
281,0,99,0,4,20
282,1,99,0,4,20
283,2,99,0,4,20
284,0,100,0,4,20
285,1,100,0,4,20
286,2,100,0,4,20
287,0,101,0,4,8
288,1,101,0,4,8
289,0,102,0,4,20
290,1,102,0,4,20
291,2,102,0,4,20
292,0,103,0,4,20
293,1,103,0,4,20
294,2,103,0,4,20
295,0,104,0,4,20
296,1,104,0,4,20
297,2,104,0,4,20
298,0,105,0,4,20
299,1,105,0,4,20
300,2,105,0,4,20
301,0,106,0,4,20
302,1,106,0,4,20
303,2,106,0,4,20
304,0,107,0,4,8
305,1,107,0,4,8
306,0,108,0,4,20
307,1,108,0,4,20
308,2,108,0,4,20
309,0,109,0,4,20
310,1,109,0,4,20
311,2,109,0,4,20
312,0,110,0,4,20
313,1,110,0,4,20
314,2,110,0,4,20
315,0,111,0,4,20
316,1,111,0,4,20
317,2,111,0,4,20
318,0,112,0,4,20
319,1,112,0,4,20
320,2,112,0,4,20
321,0,113,0,4,8
322,1,113,0,4,8
323,0,0,1,62,18
324,1,0,1,62,18
325,2,0,1,62,18
326,0,1,1,62,18
327,1,1,1,62,18
328,2,1,1,62,18
329,0,2,1,62,18
330,1,2,1,62,18
331,2,2,1,62,18
332,0,3,1,62,18
333,1,3,1,62,18
334,2,3,1,62,18
335,0,4,1,62,18
336,1,4,1,62,18
337,2,4,1,62,18
338,0,5,1,62,8
339,1,5,1,62,8
340,0,6,1,62,18
341,1,6,1,62,18
342,2,6,1,62,18
343,0,7,1,62,18
344,1,7,1,62,18
345,2,7,1,62,18
346,0,8,1,62,18
347,1,8,1,62,18
348,2,8,1,62,18
349,0,9,1,62,18
350,1,9,1,62,18
351,2,9,1,62,18
352,0,10,1,62,18
353,1,10,1,62,18
354,2,10,1,62,18
355,0,11,1,62,8
356,1,11,1,62,8
357,0,12,1,62,18
358,1,12,1,62,18
359,2,12,1,62,18
360,0,13,1,62,18
361,1,13,1,62,18
362,2,13,1,62,18
363,0,14,1,62,18
364,1,14,1,62,18
365,2,14,1,62,18
366,0,15,1,62,18
367,1,15,1,62,18
368,2,15,1,62,18
369,0,16,1,62,18
370,1,16,1,62,18
371,2,16,1,62,18
372,0,17,1,62,8
373,1,17,1,62,8
374,0,18,1,62,18
375,1,18,1,62,18
376,2,18,1,62,18
377,0,19,1,62,18
378,1,19,1,62,18
379,2,19,1,62,18
380,0,20,1,62,18
381,1,20,1,62,18
382,2,20,1,62,18
383,0,21,1,62,18
384,1,21,1,62,18
385,2,21,1,62,18
386,0,22,1,62,18
387,1,22,1,62,18
388,2,22,1,62,18
389,0,23,1,62,8
390,1,23,1,62,8
391,0,24,1,62,18
392,1,24,1,62,18
393,2,24,1,62,18
394,0,25,1,62,18
395,1,25,1,62,18
396,2,25,1,62,18
397,0,26,1,62,18
398,1,26,1,62,18
399,2,26,1,62,18
400,0,27,1,62,18
401,1,27,1,62,18
402,2,27,1,62,18
403,0,28,1,62,18
404,1,28,1,62,18
405,2,28,1,62,18
406,0,29,1,62,8
407,1,29,1,62,8
408,0,30,1,62,18
409,1,30,1,62,18
410,2,30,1,62,18
411,0,31,1,62,18
412,1,31,1,62,18
413,2,31,1,62,18
414,0,32,1,62,18
415,1,32,1,62,18
416,2,32,1,62,18
417,0,33,1,62,18
418,1,33,1,62,18
419,2,33,1,62,18
420,0,34,1,62,18
421,1,34,1,62,18
422,2,34,1,62,18
423,0,35,1,62,8
424,1,35,1,62,8
425,0,36,1,62,18
426,1,36,1,62,18
427,2,36,1,62,18
428,0,37,1,62,18
429,1,37,1,62,18
430,2,37,1,62,18
431,0,38,1,62,18
432,1,38,1,62,18
433,2,38,1,62,18
434,0,39,1,62,18
435,1,39,1,62,18
436,2,39,1,62,18
437,0,40,1,62,18
438,1,40,1,62,18
439,2,40,1,62,18
440,0,41,1,62,8
441,1,41,1,62,8
442,0,42,1,62,18
443,1,42,1,62,18
444,2,42,1,62,18
445,0,43,1,62,18
446,1,43,1,62,18
447,2,43,1,62,18
448,0,44,1,62,18
449,1,44,1,62,18
450,2,44,1,62,18
451,0,45,1,62,18
452,1,45,1,62,18
453,2,45,1,62,18
454,0,46,1,62,18
455,1,46,1,62,18
456,2,46,1,62,18
457,0,47,1,62,8
458,1,47,1,62,8
459,0,48,1,62,18
460,1,48,1,62,18
461,2,48,1,62,18
462,0,49,1,62,18
463,1,49,1,62,18
464,2,49,1,62,18
465,0,50,1,62,18
466,1,50,1,62,18
467,2,50,1,62,18
468,0,51,1,62,18
469,1,51,1,62,18
470,2,51,1,62,18
471,0,52,1,62,18
472,1,52,1,62,18
473,2,52,1,62,18
474,0,53,1,62,8
475,1,53,1,62,8
476,0,54,1,62,18
477,1,54,1,62,18
478,2,54,1,62,18
479,0,55,1,62,18
480,1,55,1,62,18
481,2,55,1,62,18
482,0,56,1,62,18
483,1,56,1,62,18
484,2,56,1,62,18
485,0,57,1,62,18
486,1,57,1,62,18
487,2,57,1,62,18
488,0,58,1,62,18
489,1,58,1,62,18
490,2,58,1,62,18
491,0,59,1,62,8
492,1,59,1,62,8
493,0,60,1,62,18
494,1,60,1,62,18
495,2,60,1,62,18
496,0,61,1,62,18
497,1,61,1,62,18
498,2,61,1,62,18
499,0,62,1,62,18
500,1,62,1,62,18
501,2,62,1,62,18
502,0,63,1,62,18
503,1,63,1,62,18
504,2,63,1,62,18
505,0,64,1,62,18
506,1,64,1,62,18
507,2,64,1,62,18
508,0,65,1,62,8
509,1,65,1,62,8
510,0,66,1,62,18
511,1,66,1,62,18
512,2,66,1,62,18
513,0,67,1,62,18
514,1,67,1,62,18
515,2,67,1,62,18
516,0,68,1,62,18
517,1,68,1,62,18
518,2,68,1,62,18
519,0,69,1,62,18
520,1,69,1,62,18
521,2,69,1,62,18
522,0,70,1,62,18
523,1,70,1,62,18
524,2,70,1,62,18
525,0,71,1,62,8
526,1,71,1,62,8
527,0,72,1,62,18
528,1,72,1,62,18
529,2,72,1,62,18
530,0,73,1,62,18
531,1,73,1,62,18
532,2,73,1,62,18
533,0,74,1,62,18
534,1,74,1,62,18
535,2,74,1,62,18
536,0,75,1,62,18
537,1,75,1,62,18
538,2,75,1,62,18
539,0,76,1,62,18
540,1,76,1,62,18
541,2,76,1,62,18
542,0,77,1,62,8
543,1,77,1,62,8
544,0,78,1,62,18
545,1,78,1,62,18
546,2,78,1,62,18
547,0,79,1,62,18
548,1,79,1,62,18
549,2,79,1,62,18
550,0,80,1,62,18
551,1,80,1,62,18
552,2,80,1,62,18
553,0,81,1,62,18
554,1,81,1,62,18
555,2,81,1,62,18
556,0,82,1,62,18
557,1,82,1,62,18
558,2,82,1,62,18
559,0,83,1,62,8
560,1,83,1,62,8
561,0,84,1,62,18
562,1,84,1,62,18
563,2,84,1,62,18
564,0,85,1,62,18
565,1,85,1,62,18
566,2,85,1,62,18
567,0,86,1,62,18
568,1,86,1,62,18
569,2,86,1,62,18
570,0,87,1,62,18
571,1,87,1,62,18
572,2,87,1,62,18
573,0,88,1,62,18
574,1,88,1,62,18
575,2,88,1,62,18
576,0,89,1,62,8
577,1,89,1,62,8
578,0,90,1,62,18
579,1,90,1,62,18
580,2,90,1,62,18
581,0,91,1,62,18
582,1,91,1,62,18
583,2,91,1,62,18
584,0,92,1,62,18
585,1,92,1,62,18
586,2,92,1,62,18
587,0,93,1,62,18
588,1,93,1,62,18
589,2,93,1,62,18
590,0,94,1,62,18
591,1,94,1,62,18
592,2,94,1,62,18
593,0,95,1,62,8
594,1,95,1,62,8
595,0,96,1,62,18
596,1,96,1,62,18
597,2,96,1,62,18
598,0,97,1,62,18
599,1,97,1,62,18
600,2,97,1,62,18
601,0,98,1,62,18
602,1,98,1,62,18
603,2,98,1,62,18
604,0,99,1,62,18
605,1,99,1,62,18
606,2,99,1,62,18
607,0,100,1,62,18
608,1,100,1,62,18
609,2,100,1,62,18
610,0,101,1,62,8
611,1,101,1,62,8
612,0,102,1,62,18
613,1,102,1,62,18
614,2,102,1,62,18
615,0,103,1,62,18
616,1,103,1,62,18
617,2,103,1,62,18
618,0,104,1,62,18
619,1,104,1,62,18
620,2,104,1,62,18
621,0,105,1,62,18
622,1,105,1,62,18
623,2,105,1,62,18
624,0,106,1,62,18
625,1,106,1,62,18
626,2,106,1,62,18
627,0,107,1,62,8
628,1,107,1,62,8
629,0,108,1,62,18
630,1,108,1,62,18
631,2,108,1,62,18
632,0,109,1,62,18
633,1,109,1,62,18
634,2,109,1,62,18
635,0,110,1,62,18
636,1,110,1,62,18
637,2,110,1,62,18
638,0,111,1,62,18
639,1,111,1,62,18
640,2,111,1,62,18
641,0,112,1,62,18
642,1,112,1,62,18
643,2,112,1,62,18
644,0,113,1,62,8
645,1,113,1,62,8
646,0,0,2,78,18
647,1,0,2,78,18
648,2,0,2,78,18
649,0,1,2,78,18
650,1,1,2,78,18
651,2,1,2,78,18
652,0,2,2,78,18
653,1,2,2,78,18
654,2,2,2,78,18
655,0,3,2,78,18
656,1,3,2,78,18
657,2,3,2,78,18
658,0,4,2,78,18
659,1,4,2,78,18
660,2,4,2,78,18
661,0,5,2,78,8
662,1,5,2,78,8
663,0,6,2,78,18
664,1,6,2,78,18
665,2,6,2,78,18
666,0,7,2,78,18
667,1,7,2,78,18
668,2,7,2,78,18
669,0,8,2,78,18
670,1,8,2,78,18
671,2,8,2,78,18
672,0,9,2,78,18
673,1,9,2,78,18
674,2,9,2,78,18
675,0,10,2,78,18
676,1,10,2,78,18
677,2,10,2,78,18
678,0,11,2,78,8
679,1,11,2,78,8
680,0,12,2,78,18
681,1,12,2,78,18
682,2,12,2,78,18
683,0,13,2,78,18
684,1,13,2,78,18
685,2,13,2,78,18
686,0,14,2,78,18
687,1,14,2,78,18
688,2,14,2,78,18
689,0,15,2,78,18
690,1,15,2,78,18
691,2,15,2,78,18
692,0,16,2,78,18
693,1,16,2,78,18
694,2,16,2,78,18
695,0,17,2,78,8
696,1,17,2,78,8
697,0,18,2,78,18
698,1,18,2,78,18
699,2,18,2,78,18
700,0,19,2,78,18
701,1,19,2,78,18
702,2,19,2,78,18
703,0,20,2,78,18
704,1,20,2,78,18
705,2,20,2,78,18
706,0,21,2,78,18
707,1,21,2,78,18
708,2,21,2,78,18
709,0,22,2,78,18
710,1,22,2,78,18
711,2,22,2,78,18
712,0,23,2,78,8
713,1,23,2,78,8
714,0,24,2,78,18
715,1,24,2,78,18
716,2,24,2,78,18
717,0,25,2,78,18
718,1,25,2,78,18
719,2,25,2,78,18
720,0,26,2,78,18
721,1,26,2,78,18
722,2,26,2,78,18
723,0,27,2,78,18
724,1,27,2,78,18
725,2,27,2,78,18
726,0,28,2,78,18
727,1,28,2,78,18
728,2,28,2,78,18
729,0,29,2,78,8
730,1,29,2,78,8
731,0,30,2,78,18
732,1,30,2,78,18
733,2,30,2,78,18
734,0,31,2,78,18
735,1,31,2,78,18
736,2,31,2,78,18
737,0,32,2,78,18
738,1,32,2,78,18
739,2,32,2,78,18
740,0,33,2,78,18
741,1,33,2,78,18
742,2,33,2,78,18
743,0,34,2,78,18
744,1,34,2,78,18
745,2,34,2,78,18
746,0,35,2,78,8
747,1,35,2,78,8
748,0,36,2,78,18
749,1,36,2,78,18
750,2,36,2,78,18
751,0,37,2,78,18
752,1,37,2,78,18
753,2,37,2,78,18
754,0,38,2,78,18
755,1,38,2,78,18
756,2,38,2,78,18
757,0,39,2,78,18
758,1,39,2,78,18
759,2,39,2,78,18
760,0,40,2,78,18
761,1,40,2,78,18
762,2,40,2,78,18
763,0,41,2,78,8
764,1,41,2,78,8
765,0,42,2,78,18
766,1,42,2,78,18
767,2,42,2,78,18
768,0,43,2,78,18
769,1,43,2,78,18
770,2,43,2,78,18
771,0,44,2,78,18
772,1,44,2,78,18
773,2,44,2,78,18
774,0,45,2,78,18
775,1,45,2,78,18
776,2,45,2,78,18
777,0,46,2,78,18
778,1,46,2,78,18
779,2,46,2,78,18
780,0,47,2,78,8
781,1,47,2,78,8
782,0,48,2,78,18
783,1,48,2,78,18
784,2,48,2,78,18
785,0,49,2,78,18
786,1,49,2,78,18
787,2,49,2,78,18
788,0,50,2,78,18
789,1,50,2,78,18
790,2,50,2,78,18
791,0,51,2,78,18
792,1,51,2,78,18
793,2,51,2,78,18
794,0,52,2,78,18
795,1,52,2,78,18
796,2,52,2,78,18
797,0,53,2,78,8
798,1,53,2,78,8
799,0,54,2,78,18
800,1,54,2,78,18
801,2,54,2,78,18
802,0,55,2,78,18
803,1,55,2,78,18
804,2,55,2,78,18
805,0,56,2,78,18
806,1,56,2,78,18
807,2,56,2,78,18
808,0,57,2,78,18
809,1,57,2,78,18
810,2,57,2,78,18
811,0,58,2,78,18
812,1,58,2,78,18
813,2,58,2,78,18
814,0,59,2,78,8
815,1,59,2,78,8
816,0,60,2,78,18
817,1,60,2,78,18
818,2,60,2,78,18
819,0,61,2,78,18
820,1,61,2,78,18
821,2,61,2,78,18
822,0,62,2,78,18
823,1,62,2,78,18
824,2,62,2,78,18
825,0,63,2,78,18
826,1,63,2,78,18
827,2,63,2,78,18
828,0,64,2,78,18
829,1,64,2,78,18
830,2,64,2,78,18
831,0,65,2,78,8
832,1,65,2,78,8
833,0,66,2,78,18
834,1,66,2,78,18
835,2,66,2,78,18
836,0,67,2,78,18
837,1,67,2,78,18
838,2,67,2,78,18
839,0,68,2,78,18
840,1,68,2,78,18
841,2,68,2,78,18
842,0,69,2,78,18
843,1,69,2,78,18
844,2,69,2,78,18
845,0,70,2,78,18
846,1,70,2,78,18
847,2,70,2,78,18
848,0,71,2,78,8
849,1,71,2,78,8
850,0,72,2,78,18
851,1,72,2,78,18
852,2,72,2,78,18
853,0,73,2,78,18
854,1,73,2,78,18
855,2,73,2,78,18
856,0,74,2,78,18
857,1,74,2,78,18
858,2,74,2,78,18
859,0,75,2,78,18
860,1,75,2,78,18
861,2,75,2,78,18
862,0,76,2,78,18
863,1,76,2,78,18
864,2,76,2,78,18
865,0,77,2,78,8
866,1,77,2,78,8
867,0,78,2,78,18
868,1,78,2,78,18
869,2,78,2,78,18
870,0,79,2,78,18
871,1,79,2,78,18
872,2,79,2,78,18
873,0,80,2,78,18
874,1,80,2,78,18
875,2,80,2,78,18
876,0,81,2,78,18
877,1,81,2,78,18
878,2,81,2,78,18
879,0,82,2,78,18
880,1,82,2,78,18
881,2,82,2,78,18
882,0,83,2,78,8
883,1,83,2,78,8
884,0,84,2,78,18
885,1,84,2,78,18
886,2,84,2,78,18
887,0,85,2,78,18
888,1,85,2,78,18
889,2,85,2,78,18
890,0,86,2,78,18
891,1,86,2,78,18
892,2,86,2,78,18
893,0,87,2,78,18
894,1,87,2,78,18
895,2,87,2,78,18
896,0,88,2,78,18
897,1,88,2,78,18
898,2,88,2,78,18
899,0,89,2,78,8
900,1,89,2,78,8
901,0,90,2,78,18
902,1,90,2,78,18
903,2,90,2,78,18
904,0,91,2,78,18
905,1,91,2,78,18
906,2,91,2,78,18
907,0,92,2,78,18
908,1,92,2,78,18
909,2,92,2,78,18
910,0,93,2,78,18
911,1,93,2,78,18
912,2,93,2,78,18
913,0,94,2,78,18
914,1,94,2,78,18
915,2,94,2,78,18
916,0,95,2,78,8
917,1,95,2,78,8
918,0,96,2,78,18
919,1,96,2,78,18
920,2,96,2,78,18
921,0,97,2,78,18
922,1,97,2,78,18
923,2,97,2,78,18
924,0,98,2,78,18
925,1,98,2,78,18
926,2,98,2,78,18
927,0,99,2,78,18
928,1,99,2,78,18
929,2,99,2,78,18
930,0,100,2,78,18
931,1,100,2,78,18
932,2,100,2,78,18
933,0,101,2,78,8
934,1,101,2,78,8
935,0,102,2,78,18
936,1,102,2,78,18
937,2,102,2,78,18
938,0,103,2,78,18
939,1,103,2,78,18
940,2,103,2,78,18
941,0,104,2,78,18
942,1,104,2,78,18
943,2,104,2,78,18
944,0,105,2,78,18
945,1,105,2,78,18
946,2,105,2,78,18
947,0,106,2,78,18
948,1,106,2,78,18
949,2,106,2,78,18
950,0,107,2,78,8
951,1,107,2,78,8
952,0,108,2,78,18
953,1,108,2,78,18
954,2,108,2,78,18
955,0,109,2,78,18
956,1,109,2,78,18
957,2,109,2,78,18
958,0,110,2,78,18
959,1,110,2,78,18
960,2,110,2,78,18
961,0,111,2,78,18
962,1,111,2,78,18
963,2,111,2,78,18
964,0,112,2,78,18
965,1,112,2,78,18
966,2,112,2,78,18
967,0,113,2,78,8
968,1,113,2,78,8
969,0,0,3,69,20
970,1,0,3,69,20
971,2,0,3,69,20
972,0,1,3,69,20
973,1,1,3,69,20
974,2,1,3,69,20
975,0,2,3,69,20
976,1,2,3,69,20
977,2,2,3,69,20
978,0,3,3,69,20
979,1,3,3,69,20
980,2,3,3,69,20
981,0,4,3,69,20
982,1,4,3,69,20
983,2,4,3,69,20
984,0,5,3,69,8
985,1,5,3,69,8
986,0,6,3,69,20
987,1,6,3,69,20
988,2,6,3,69,20
989,0,7,3,69,20
990,1,7,3,69,20
991,2,7,3,69,20
992,0,8,3,69,20
993,1,8,3,69,20
994,2,8,3,69,20
995,0,9,3,69,20
996,1,9,3,69,20
997,2,9,3,69,20
998,0,10,3,69,20
999,1,10,3,69,20
1000,2,10,3,69,20
1001,0,11,3,69,8
1002,1,11,3,69,8
1003,0,12,3,69,20
1004,1,12,3,69,20
1005,2,12,3,69,20
1006,0,13,3,69,20
1007,1,13,3,69,20
1008,2,13,3,69,20
1009,0,14,3,69,20
1010,1,14,3,69,20
1011,2,14,3,69,20
1012,0,15,3,69,20
1013,1,15,3,69,20
1014,2,15,3,69,20
1015,0,16,3,69,20
1016,1,16,3,69,20
1017,2,16,3,69,20
1018,0,17,3,69,8
1019,1,17,3,69,8
1020,0,18,3,69,20
1021,1,18,3,69,20
1022,2,18,3,69,20
1023,0,19,3,69,20
1024,1,19,3,69,20
1025,2,19,3,69,20
1026,0,20,3,69,20
1027,1,20,3,69,20
1028,2,20,3,69,20
1029,0,21,3,69,20
1030,1,21,3,69,20
1031,2,21,3,69,20
1032,0,22,3,69,20
1033,1,22,3,69,20
1034,2,22,3,69,20
1035,0,23,3,69,8
1036,1,23,3,69,8
1037,0,24,3,69,20
1038,1,24,3,69,20
1039,2,24,3,69,20
1040,0,25,3,69,20
1041,1,25,3,69,20
1042,2,25,3,69,20
1043,0,26,3,69,20
1044,1,26,3,69,20
1045,2,26,3,69,20
1046,0,27,3,69,20
1047,1,27,3,69,20
1048,2,27,3,69,20
1049,0,28,3,69,20
1050,1,28,3,69,20
1051,2,28,3,69,20
1052,0,29,3,69,8
1053,1,29,3,69,8
1054,0,30,3,69,20
1055,1,30,3,69,20
1056,2,30,3,69,20
1057,0,31,3,69,20
1058,1,31,3,69,20
1059,2,31,3,69,20
1060,0,32,3,69,20
1061,1,32,3,69,20
1062,2,32,3,69,20
1063,0,33,3,69,20
1064,1,33,3,69,20
1065,2,33,3,69,20
1066,0,34,3,69,20
1067,1,34,3,69,20
1068,2,34,3,69,20
1069,0,35,3,69,8
1070,1,35,3,69,8
1071,0,36,3,69,20
1072,1,36,3,69,20
1073,2,36,3,69,20
1074,0,37,3,69,20
1075,1,37,3,69,20
1076,2,37,3,69,20
1077,0,38,3,69,20
1078,1,38,3,69,20
1079,2,38,3,69,20
1080,0,39,3,69,20
1081,1,39,3,69,20
1082,2,39,3,69,20
1083,0,40,3,69,20
1084,1,40,3,69,20
1085,2,40,3,69,20
1086,0,41,3,69,8
1087,1,41,3,69,8
1088,0,42,3,69,20
1089,1,42,3,69,20
1090,2,42,3,69,20
1091,0,43,3,69,20
1092,1,43,3,69,20
1093,2,43,3,69,20
1094,0,44,3,69,20
1095,1,44,3,69,20
1096,2,44,3,69,20
1097,0,45,3,69,20
1098,1,45,3,69,20
1099,2,45,3,69,20
1100,0,46,3,69,20
1101,1,46,3,69,20
1102,2,46,3,69,20
1103,0,47,3,69,8
1104,1,47,3,69,8
1105,0,48,3,69,20
1106,1,48,3,69,20
1107,2,48,3,69,20
1108,0,49,3,69,20
1109,1,49,3,69,20
1110,2,49,3,69,20
1111,0,50,3,69,20
1112,1,50,3,69,20
1113,2,50,3,69,20
1114,0,51,3,69,20
1115,1,51,3,69,20
1116,2,51,3,69,20
1117,0,52,3,69,20
1118,1,52,3,69,20
1119,2,52,3,69,20
1120,0,53,3,69,8
1121,1,53,3,69,8
1122,0,54,3,69,20
1123,1,54,3,69,20
1124,2,54,3,69,20
1125,0,55,3,69,20
1126,1,55,3,69,20
1127,2,55,3,69,20
1128,0,56,3,69,20
1129,1,56,3,69,20
1130,2,56,3,69,20
1131,0,57,3,69,20
1132,1,57,3,69,20
1133,2,57,3,69,20
1134,0,58,3,69,20
1135,1,58,3,69,20
1136,2,58,3,69,20
1137,0,59,3,69,8
1138,1,59,3,69,8
1139,0,60,3,69,20
1140,1,60,3,69,20
1141,2,60,3,69,20
1142,0,61,3,69,20
1143,1,61,3,69,20
1144,2,61,3,69,20
1145,0,62,3,69,20
1146,1,62,3,69,20
1147,2,62,3,69,20
1148,0,63,3,69,20
1149,1,63,3,69,20
1150,2,63,3,69,20
1151,0,64,3,69,20
1152,1,64,3,69,20
1153,2,64,3,69,20
1154,0,65,3,69,8
1155,1,65,3,69,8
1156,0,66,3,69,20
1157,1,66,3,69,20
1158,2,66,3,69,20
1159,0,67,3,69,20
1160,1,67,3,69,20
1161,2,67,3,69,20
1162,0,68,3,69,20
1163,1,68,3,69,20
1164,2,68,3,69,20
1165,0,69,3,69,20
1166,1,69,3,69,20
1167,2,69,3,69,20
1168,0,70,3,69,20
1169,1,70,3,69,20
1170,2,70,3,69,20
1171,0,71,3,69,8
1172,1,71,3,69,8
1173,0,72,3,69,20
1174,1,72,3,69,20
1175,2,72,3,69,20
1176,0,73,3,69,20
1177,1,73,3,69,20
1178,2,73,3,69,20
1179,0,74,3,69,20
1180,1,74,3,69,20
1181,2,74,3,69,20
1182,0,75,3,69,20
1183,1,75,3,69,20
1184,2,75,3,69,20
1185,0,76,3,69,20
1186,1,76,3,69,20
1187,2,76,3,69,20
1188,0,77,3,69,8
1189,1,77,3,69,8
1190,0,78,3,69,20
1191,1,78,3,69,20
1192,2,78,3,69,20
1193,0,79,3,69,20
1194,1,79,3,69,20
1195,2,79,3,69,20
1196,0,80,3,69,20
1197,1,80,3,69,20
1198,2,80,3,69,20
1199,0,81,3,69,20
1200,1,81,3,69,20
1201,2,81,3,69,20
1202,0,82,3,69,20
1203,1,82,3,69,20
1204,2,82,3,69,20
1205,0,83,3,69,8
1206,1,83,3,69,8
1207,0,84,3,69,20
1208,1,84,3,69,20
1209,2,84,3,69,20
1210,0,85,3,69,20
1211,1,85,3,69,20
1212,2,85,3,69,20
1213,0,86,3,69,20
1214,1,86,3,69,20
1215,2,86,3,69,20
1216,0,87,3,69,20
1217,1,87,3,69,20
1218,2,87,3,69,20
1219,0,88,3,69,20
1220,1,88,3,69,20
1221,2,88,3,69,20
1222,0,89,3,69,8
1223,1,89,3,69,8
1224,0,90,3,69,20
1225,1,90,3,69,20
1226,2,90,3,69,20
1227,0,91,3,69,20
1228,1,91,3,69,20
1229,2,91,3,69,20
1230,0,92,3,69,20
1231,1,92,3,69,20
1232,2,92,3,69,20
1233,0,93,3,69,20
1234,1,93,3,69,20
1235,2,93,3,69,20
1236,0,94,3,69,20
1237,1,94,3,69,20
1238,2,94,3,69,20
1239,0,95,3,69,8
1240,1,95,3,69,8
1241,0,96,3,69,20
1242,1,96,3,69,20
1243,2,96,3,69,20
1244,0,97,3,69,20
1245,1,97,3,69,20
1246,2,97,3,69,20
1247,0,98,3,69,20
1248,1,98,3,69,20
1249,2,98,3,69,20
1250,0,99,3,69,20
1251,1,99,3,69,20
1252,2,99,3,69,20
1253,0,100,3,69,20
1254,1,100,3,69,20
1255,2,100,3,69,20
1256,0,101,3,69,8
1257,1,101,3,69,8
1258,0,102,3,69,20
1259,1,102,3,69,20
1260,2,102,3,69,20
1261,0,103,3,69,20
1262,1,103,3,69,20
1263,2,103,3,69,20
1264,0,104,3,69,20
1265,1,104,3,69,20
1266,2,104,3,69,20
1267,0,105,3,69,20
1268,1,105,3,69,20
1269,2,105,3,69,20
1270,0,106,3,69,20
1271,1,106,3,69,20
1272,2,106,3,69,20
1273,0,107,3,69,8
1274,1,107,3,69,8
1275,0,108,3,69,20
1276,1,108,3,69,20
1277,2,108,3,69,20
1278,0,109,3,69,20
1279,1,109,3,69,20
1280,2,109,3,69,20
1281,0,110,3,69,20
1282,1,110,3,69,20
1283,2,110,3,69,20
1284,0,111,3,69,20
1285,1,111,3,69,20
1286,2,111,3,69,20
1287,0,112,3,69,20
1288,1,112,3,69,20
1289,2,112,3,69,20
1290,0,113,3,69,8
1291,1,113,3,69,8
