N°,CODIGO,NOMBRE DE LA AGENCIA,UBIGEO,DEPARTAMENTO,PROVINCIA,DISTRITO,DIRECCIÓN,HORARIO ATENCIÓN LUNES-VIERNES,HORARIO ATENCIÓN SABADO,LONGITUD,LATITUD
1,1,CALLAO,70101,CALLAO,CALLAO,CALLAO,AV. SAENZ PEÑA N°  205 - 207 -209,8:00 a.m - 17:00 horas,09:00 a.m - 13:00 horas,-77.1456749,-12.0613156
2,2,28 DE JULIO,150101,LIMA,LIMA,LIMA,AV. DU PETIT THOUARS 113 ESQ. 28 DE JULIO 932 - CERCADO,8:00 a.m - 17:00 horas,09:00 a.m - 13:00 horas,-77.0361522,-12.0647398
3,3,MIRAFLORES,150122,LIMA,LIMA,MIRAFLORES,AV. JOSE PARDO N° 205,8:00 a.m - 17:00 horas,09:00 a.m - 13:00 horas,-77.03041280000001,-12.119330499999998
4,4,SAN JUAN DE LURIGANCHO,150132,LIMA,LIMA,SAN JUAN DE LURIGANCHO,AV. TUSILAGOS MZ. P LT. 3 Y 4 URB. LOS JARDINES DE SAN JUAN DE LURIGANCHO,7:00 a.m - 17:00 horas,09:00 a.m - 13:00 horas,-76.9994068,-11.9982034
5,6,PLAZA PIZARRO,150101,LIMA,LIMA,LIMA,JR. DE LA UNIÓN N° 170 - CERCADO,8:00 a.m - 17:00 horas,09:00 a.m - 13:00 horas,-77.029975,-12.044115199999998
6,7,AEROPUERTO,70101,CALLAO,CALLAO,CALLAO,"AV. ELMER FAUCETT ESQ. AV. TOMÁS VALLE, CENTRO AÉREO COMERCIAL TDAS. 105B, 106B, 107B Y 108B / SECTOR B / 2° ETAPA",8:00 a.m - 17:00 horas,09:00 a.m - 13:00 horas,-77.1048574,-12.0241796
7,8,SAN ISIDRO,150131,LIMA,LIMA,SAN ISIDRO,AV. REPÚBLICA DE PANAMÁ N° 3650 - 3660 -3664 - 3666,8:00 a.m - 17:00 horas,09:00 a.m - 13:00 horas,-77.0192282,-12.1009032
8,10,BARRANCO,150104,LIMA,LIMA,BARRANCO,AV. GRAU N° 101,8:00 a.m - 17:00 horas,09:00 a.m - 13:00 horas,-77.02226920000001,-12.141277800000001
9,12,BREÑA,150105,LIMA,LIMA,BREÑA,JR. ORBEGOZO N° 298 ESQUINA CON EL JR. HUARAZ S/N,8:00 a.m - 17:00 horas,09:00 a.m - 13:00 horas,-77.0502858,-12.0663819
10,13,SAN JUAN DE MIRAFLORES,150133,LIMA,LIMA,SAN JUAN DE MIRAFLORES,"AV. GUILLERMO BILLINGHURST N° 1091-1093 MZ. G2 LOTE 32, ZONA D",8:00 a.m - 17:00 horas,09:00 a.m - 13:00 horas,-76.9630905,-12.162222900000002
11,14,CHORRILLOS,150108,LIMA,LIMA,CHORRILLOS,AV. ALEJANDRO IGLESIAS N° 496 URBANIZACIÓN CHORRILLOS (CIUDAD),7:00 a.m - 17:00 horas,09:00 a.m - 13:00 horas,-77.0252229,-12.167719
12,15,EL AGUSTINO,150111,LIMA,LIMA,EL AGUSTINO,JR. ANCASH N° 2151 (C.C. AGUSTINO PLAZA) LOCALES 2181- 2185,8:00 a.m - 17:00 horas,09:00 a.m - 13:00 horas,-77.00270359999999,-12.041138900000002
13,17,SAN JOSE,150113,LIMA,LIMA,JESUS MARIA,JR. HORACIO URTEAGA N° 1280,8:00 a.m - 17:00 horas,09:00 a.m - 13:00 horas,-77.0486531,-12.073967699999999
14,18,LA PERLA,70104,CALLAO,CALLAO,LA PERLA,"AV. SANTA ROSA N° 135 - CENTRO COMERCIAL LA PERLA OF. A-101, A-102",8:00 a.m - 17:00 horas,09:00 a.m - 13:00 horas,-77.1195041,-12.0662685
15,19,LA VICTORIA,150115,LIMA,LIMA,LA VICTORIA,AV. NICOLÁS ARRIOLA N° 873 - 875 URB. SANTA CATALINA,8:00 a.m - 17:00 horas,09:00 a.m - 13:00 horas,-77.012973,-12.0803296
16,20,JOCKEY PLAZA,150140,LIMA,LIMA,SANTIAGO DE SURCO,"AV. JAVIER PRADO ESTE N° 4200, C. C. JOCKEY PLAZA, LOCAL CENTRO FINANCIERO - B 09B",8:00 a.m - 17:00 horas,09:00 a.m - 13:00 horas,-76.9788883,-12.0853659
17,21,LINCE,150116,LIMA,LIMA,LINCE,AV. ARENALES N° 1785-1795,8:00 a.m - 17:00 horas,09:00 a.m - 13:00 horas,-77.035831,-12.0824719
18,22,MAGDALENA,150120,LIMA,LIMA,MAGDALENA DEL MAR,CALLE SAN MARTIN N° 645,8:00 a.m - 17:00 horas,09:00 a.m - 13:00 horas,-77.07595079999999,-12.089248699999999
19,23,SAN FELIPE,150113,LIMA,LIMA,JESUS MARIA,"CENTRO COMERCIAL SAN FELIPE, TIENDAS N° 8 Y 9",8:00 a.m - 17:00 horas,09:00 a.m - 13:00 horas,-77.0542763,-12.087843199999998
20,24,PUEBLO LIBRE,150121,LIMA,LIMA,PUEBLO LIBRE,AV. BOLIVAR N° 936 - 940,8:00 a.m - 17:00 horas,09:00 a.m - 13:00 horas,-77.06222640000001,-12.0714989
21,25,RIMAC,150128,LIMA,LIMA,RIMAC,AV. FELIPE ARANCIBIA N° 585 URB. VENTURA ROSSI,8:00 a.m - 17:00 horas,09:00 a.m - 13:00 horas,-77.03541,-12.029311
22,26,CARABAYLLO,150106,LIMA,LIMA,CARABAYLLO,"AV. CHIMPU OCLLO N° 747, URB. TUNGASUCA",7:00 a.m - 17:00 horas,09:00 a.m - 13:00 horas,-77.0351617,-11.895959199999998
23,28,CENTRO COMERCIAL LIMA PLAZA NORTE,150112,LIMA,LIMA,INDEPENDENCIA,AVENIDA ALFREDO MENDIOLA N° 1400 LOCAL PM-01 C.C. PLAZA LIMA NORTE - INDEPENDENCIA,8:00 a.m - 17:00 horas,09:00 a.m - 13:00 horas,-77.0582257,-12.007004
24,29,GRIFO G Y K,150120,LIMA,LIMA,MAGDALENA DEL MAR,AV. DEL EJERCITO N° 110-112,8:00 a.m - 17:00 horas,09:00 a.m - 13:00 horas,-77.0715875,-12.0973711
25,30,SAN MARTIN DE PORRES,150135,LIMA,LIMA,SAN MARTIN DE PORRES,ESQ. AV. PERU N° 1350-1352 Y CALLE PUERTO ESPERANZA URB. PERU,8:00 a.m - 17:00 horas,09:00 a.m - 13:00 horas,-77.096882,-11.9815573
26,31,SAN MIGUEL,150136,LIMA,LIMA,SAN MIGUEL,CALLE CARLOS GONZALES CANDAMO N° 224 CENTRO COMERCIAL MARANGA 7MA. ETAPA,8:00 a.m - 17:00 horas,09:00 a.m - 13:00 horas,-77.09712490000001,-12.066213000000001
27,34,MEXICO,150115,LIMA,LIMA,LA VICTORIA,AV. MEXICO N° 230,8:00 a.m - 17:00 horas,09:00 a.m - 13:00 horas,-77.0273323,-12.076559800000002
28,35,CENTROS ACADEMICOS,150108,LIMA,LIMA,CHORRILLOS,AV. ESCUELA MILITAR S/N,8:00 a.m - 17:00 horas,-,-77.01922040000001,-12.1611481
29,36,CUARTEL GENERAL DEL,150130,LIMA,LIMA,SAN BORJA,AV. BOULEVARD S/N,8:00 a.m - 17:00 horas,-,-76.9892193,-12.0967588
30,37,CALLAO CREDITOS,70101,CALLAO,CALLAO,CALLAO,AV. SAENZ PEÑA N° 255 - CERCADO,8:00 a.m - 17:00 horas,09:00 a.m - 13:00 horas,-77.1450739,-12.0611719
31,39,LAS PALMAS,150140,LIMA,LIMA,SANTIAGO DE SURCO,AV. JORGE CHAVEZ S/N ESCUELA DE OFICIALES DE LA FAP,8:00 a.m - 17:00 horas,-,-77.00108259999999,-12.151560400000001
32,40,CUARTEL GENERAL FAP,150113,LIMA,LIMA,JESUS MARIA,AV. 28 DE JULIO S/N,8:00 a.m - 17:00 horas,-,-77.0418712,-12.0647627
33,41,CENTRO COMERCIAL,150115,LIMA,LIMA,LA VICTORIA,JR. SEBASTIAN BARRANCA N° 1410 - 1412,8:00 a.m - 17:00 horas,09:00 a.m - 13:00 horas,-77.01616990000001,-12.0669165
34,42,GRIFO GRACO,150103,LIMA,LIMA,ATE,AV. SEPARADORA INDUSTRIAL N° 2503 URB. IND. SANTA RAQUEL - II ETAPA,8:00 a.m - 17:00 horas,09:00 a.m - 13:00 horas,-76.9512364,-12.0598981
35,44,MINISTERIO DEL INTERIOR,150131,LIMA,LIMA,SAN ISIDRO,AV. ENRIQUE CANAVAL Y MOREYRA S/N,8:00 a.m - 17:00 horas,-,-77.020112,-12.097540400000002
36,45,PUENTE PIEDRA,150125,LIMA,LIMA,PUENTE PIEDRA,AV. PUENTE PIEDRA N° 180 PANAMERICANA NORTE KM. 31,7:00 a.m - 17:00 horas,09:00 a.m - 13:00 horas,-77.0763936,-11.8634352
37,46,JAVIER PRADO,150131,LIMA,LIMA,SAN ISIDRO,AV. AREQUIPA N° 2740,8:00 a.m - 17:00 horas,09:00 a.m - 13:00 horas,-77.0332185,-12.092831
38,47,BASE NAVAL,70101,CALLAO,CALLAO,CALLAO,AV. CONTRALMIRANTE MORA N° 791,8:00 a.m - 17:00 horas,-,-77.13657370000001,-12.0417
39,48,OFICINA PRINCIPAL,150130,LIMA,LIMA,SAN BORJA,AV. DE LA ARQUEOLOGIA N° 130,8:00 a.m - 17:00 horas,09:00 a.m - 13:00 horas,-77.00014,-12.0868985
40,49,COMAS,150110,LIMA,LIMA,COMAS,AV. TUPAC AMARU N° 5057,8:00 a.m - 17:00 horas,09:00 a.m - 13:00 horas,-77.04142829999999,-11.9188708
41,51,COMAS,150110,LIMA,LIMA,COMAS,AV. TUPAC AMARU N° 5057 - URBANIZACION HUAQUILLAY - I ETAPA MZ. R - LOTE 15,7:00 a.m - 17:00 horas,09:00 a.m - 13:00 horas,-77.053722,-11.9594558
42,52,LURIN,150119,LIMA,LIMA,LURIN,JR. SAN PEDRO N° 181,8:00 a.m - 17:00 horas,09:00 a.m - 13:00 horas,-76.8686441,-12.273188699999999
43,53,CUARTEL GENERAL DE LA,70101,CALLAO,CALLAO,CALLAO,AV. LA MARINA N° 36,8:00 a.m - 17:00 horas,-,-77.07309659999999,-12.080833300000002
44,54,COMAS,150110,LIMA,LIMA,COMAS,"AV. TUPAC AMARU N° 347 - KM 8.5, URB. CARABAYLLO",8:00 a.m - 17:00 horas,09:00 a.m - 13:00 horas,-77.056833,-11.967215
45,55,MINKA,70101,CALLAO,CALLAO,CALLAO,AV. ARGENTINA N° 3039 C.C. MINKA PABELLON 09 CALLE 03 LOCAL 113,8:00 a.m - 17:00 horas,09:00 a.m - 13:00 horas,-77.1110564,-12.048472199999999
46,56,MANCHAY,150123,LIMA,LIMA,PACHACAMAC,AV. VICTOR VELASQUEZ S/N CENTRO POBLADO DE MANCHAY,8:00 a.m - 17:00 horas,09:00 a.m - 13:00 horas,-76.866667,-12.166667
47,57,MULTIPLAZA,150112,LIMA,LIMA,INDEPENDENCIA,AV. CARLOS IZAGUIRRE N° 271 LOCAL 6 MZ. C LT 22 PANAMERICANA NORTE,8:00 a.m - 17:00 horas,09:00 a.m - 13:00 horas,-77.06200550000001,-11.990476199999998
48,58,CHAMA,150140,LIMA,LIMA,SANTIAGO DE SURCO,ALFREDO BENAVIDES N° 3789 MZ. G. LT. 000001,8:00 a.m - 17:00 horas,09:00 a.m - 13:00 horas,-76.99624329999999,-12.128349499999999
49,59,INDEPENDENCIA,150112,LIMA,LIMA,INDEPENDENCIA,AV. EL PACIFICO N° 599 URB. PANAMERICA NORTE - INDEPENDENCIA,7:00 a.m - 17:00 horas,09:00 a.m - 13:00 horas,-77.0626455,-11.9966251
50,60,CENTRO CIVICO,150101,LIMA,LIMA,LIMA,AV. URUGUAY N° 172 - 198 Y CALLE JACINTO LOPEZ N° 175 - 181,8:00 a.m - 17:00 horas,09:00 a.m - 13:00 horas,-77.042754,-12.0463731
51,61,VILLA EL SALVADOR,150142,LIMA,LIMA,VILLA EL SALVADOR,SECTOR 02 GRUPO 15 MANZ. M LOTE 06,7:00 a.m - 17:00 horas,09:00 a.m - 13:00 horas,-76.94154420000001,-12.216221800000001
52,62,ZARATE,150132,LIMA,LIMA,SAN JUAN DE LURIGANCHO,AV. GRAN CHIMU N° 382 - URB. ZARATE,8:00 a.m - 17:00 horas,09:00 a.m - 13:00 horas,-77.0078733,-12.0275375
53,63,VILLA MARIA DEL TRIUNFO,150143,LIMA,LIMA,VILLA MARIA DEL TRIUNFO,AV. SALVADOR ALLENDE N° 699,8:00 a.m - 17:00 horas,09:00 a.m - 13:00 horas,-76.9666752,-12.150724199999999
54,65,MERCADO DE PRODUCTORES DE SANTA ANITA,150137,LIMA,LIMA,SANTA ANITA,AVENIDA LA CULTURA N° 808 TIENDA 4A,8:00 a.m - 17:00 horas,09:00 a.m - 13:00 horas,-76.9458317,-12.043331599999998
55,66,LA MOLINA,150114,LIMA,LIMA,LA MOLINA,AV. LA MOLINA N° 1057 MZ. P LOTE 10 URB. SAN CESAR I ETAPA,8:00 a.m - 17:00 horas,09:00 a.m - 13:00 horas,-76.9573633,-12.0698498
56,71,SALON INTERNACIONAL AEROPUERTO,70101,CALLAO,CALLAO,CALLAO,AV. ELMER FAUCETT S/N - AEROPUERTO INTERNACIONAL JORGE CHAVEZ,8:00 a.m - 17:00 horas,09:00 a.m - 13:00 horas,-77.112036,-12.024052699999999
57,72,SANTA ANITA,150137,LIMA,LIMA,SANTA ANITA,CALLE LAS ALONDRAS N° 243,8:00 a.m - 17:00 horas,09:00 a.m - 13:00 horas,-76.9632633,-12.0539469
58,73,SUNAT - MIRAFLORES,150122,LIMA,LIMA,MIRAFLORES,AV. PASEO DE LA REPUBLICA N° 4728,8:00 a.m - 17:00 horas,-,-77.0263364,-12.112739900000001
59,74,LOS OLIVOS,150117,LIMA,LIMA,LOS OLIVOS,JIRON SANTA CRUZ N° 166 URB. PANAMERICANA NORTE,7:00 a.m - 17:00 horas,09:00 a.m - 13:00 horas,-77.06762420000001,-11.9876064
60,76,MONTERRICO,150140,LIMA,LIMA,SANTIAGO DE SURCO,AV. PRIMAVERA N° 1757,8:00 a.m - 17:00 horas,09:00 a.m - 13:00 horas,-76.9702152,-12.1084035
61,77,CENTRO COMERCIAL OPEN PLAZA ANGAMOS,150141,LIMA,LIMA,SURQUILLO,AV. ANGAMOS ESTE N° 1805 LOCAL LC 96,8:00 a.m - 17:00 horas,09:00 a.m - 13:00 horas,-77.0119224,-12.1121647
62,78,CENTRO COMERCIAL PENTA MALL CANTO GRANDE ,150132,LIMA,LIMA,SAN JUAN DE LURIGANCHO,"AV. CANTO GRANDE N° 268, LOTE 15, MZ. A",8:00 a.m - 17:00 horas,09:00 a.m - 13:00 horas,-77.0109559,-11.9788578
63,80,MEGAPLAZA - INDEPENDENCIA,150112,LIMA,LIMA,INDEPENDENCIA,AV. ALFREDO MENDIOLA N° 3698 C.C. MEGAPLAZA,8:00 a.m - 17:00 horas,09:00 a.m - 13:00 horas,-77.0612389,-11.9942378
64,84,PALACIO DE JUSTICIA,150101,LIMA,LIMA,LIMA,JR. MIGUEL ALJOVIN S/N,8:00 a.m - 17:00 horas,-,-77.0767257,-12.026677099999999
65,85,JESUS MARIA,150113,LIMA,LIMA,JESUS MARIA,JR. CAMILO CARRILLO N° 299 ESQUINA CON EL JR.GENERAL CORDOVA,8:00 a.m - 17:00 horas,09:00 a.m - 13:00 horas,-77.006304,-12.1449615
66,86,MI PERU,70107,CALLAO,CALLAO,MI PERU,"AV. AYACUCHO S/N MANZANA I-10, LOTE 28",8:00 a.m - 17:00 horas,09:00 a.m - 13:00 horas,-77.12157619999999,-11.852473
67,88,VENTANILLA,70106,CALLAO,CALLAO,VENTANILLA,AV. LA PLAYA S/N MZ C-9 - EX ZONA COMERCIAL,7:00 a.m - 17:00 horas,09:00 a.m - 13:00 horas,-77.1269462,-11.8759949
68,91,CHACLACAYO,150107,LIMA,LIMA,CHACLACAYO,AV. NICOLÁS AYLLÓN N° 289 ESQ. CALLE LOS CEREZOS S/N,8:00 a.m - 17:00 horas,09:00 a.m - 13:00 horas,-76.77465190000001,-11.9772164
69,92,CANTA,150401,LIMA,CANTA,CANTA,JR. INDEPENDENCIA N° 308,8:00 a.m - 17:00 horas,09:00 a.m - 13:00 horas,-76.62462690000001,-11.4672346
70,94,CHOSICA,150118,LIMA,LIMA,LURIGANCHO,AV.LIMA SUR N° 511,7:00 a.m - 17:00 horas,09:00 a.m - 13:00 horas,-76.71325,-11.945146699999999
71,97,SAN MATEO,150722,LIMA,HUAROCHIRI,SAN MATEO,JR. CHICLAYO N° 216,8:00 a.m - 17:00 horas,09:00 a.m - 13:00 horas,-76.30050159999999,-11.759615199999999
72,98,SAN BORJA,150130,LIMA,LIMA,SAN BORJA,AV. JAVIER PRADO ESTE N° 1838 Y 1840 - URB. CORPAC,8:00 a.m - 17:00 horas,09:00 a.m - 13:00 horas,-77.006879,-12.0889432
73,99,LIMA,150101,LIMA,LIMA,LIMA,JR. LAMPA N° 801,8:00 a.m - 17:00 horas,09:00 a.m - 13:00 horas,-77.032061,-12.0514395
74,101,AREQUIPA,40101,AREQUIPA,AREQUIPA,AREQUIPA,CALLE PIEROLA N° 110 - 112,8:00 a.m - 17:00 horas,09:00 a.m - 13:00 horas,-71.53418309999999,-16.3997925
75,102,CAMANA,40201,AREQUIPA,CAMANA,CAMANA,BOULEVARD 28 DE JULIO N° 167,7:00 a.m - 17:00 horas,09:00 a.m - 13:00 horas,-72.7105652,-16.623407999999998
76,103,CHIVAY,40501,AREQUIPA,CAYLLOMA,CHIVAY,"PLAZA DE ARMAS S/N, MANZANA R LOTE 1 SECTOR A- URINSAYA",8:00 a.m - 17:00 horas,09:00 a.m - 13:00 horas,-71.60462259999998,-15.6360429
77,104,OMATE,180201,MOQUEGUA,GENERAL SANCHEZ CERRO,OMATE,CALLES ESQUINA GRAU CON SAN MARTIN,8:00 a.m - 17:00 horas,09:00 a.m - 13:00 horas,-70.97176929999999,-16.6735115
78,105,LA JOYA,40108,AREQUIPA,AREQUIPA,LA JOYA,CALLE GRAU N° 212,8:00 a.m - 17:00 horas,09:00 a.m - 13:00 horas,-71.87131629999999,-16.724232999999998
79,106,OCOÑA,40206,AREQUIPA,CAMANA,OCOÑA,CALLE UNION 126,8:00 a.m - 17:00 horas,09:00 a.m - 13:00 horas,-73.10692979999999,-16.430785
80,107,PUQUINA,180208,MOQUEGUA,GENERAL SANCHEZ CERRO,PUQUINA,CALLE GRAU S/N - PLAZA PRINCIPAL DE PUQUINA,8:00 a.m - 17:00 horas,09:00 a.m - 13:00 horas,-71.2116875,-16.6105826
81,109,MIRAFLORES,40110,AREQUIPA,AREQUIPA,MIRAFLORES,AV. MARISCAL CASTILLA N° 612 - 618,8:00 a.m - 17:00 horas,09:00 a.m - 13:00 horas,-71.517212,-16.402667
82,113,PERIFERICA AREQUIPA,40103,AREQUIPA,AREQUIPA,CAYMA,AV. CAYMA N° 618,8:00 a.m - 17:00 horas,09:00 a.m - 13:00 horas,-71.5474238,-16.3885762
83,115,EL PEDREGAL,40520,AREQUIPA,CAYLLOMA,MAJES,ESQUINA DE LAS CALLES SABANDÍA Y AVENIDA CONDESUYOS MZ.F LT1,8:00 a.m - 17:00 horas,09:00 a.m - 13:00 horas,-72.1898387,-16.3615849
84,116,BUSTAMANTE Y RIVERO,40129,AREQUIPA,AREQUIPA,JOSE LUIS BUSTAMANTE Y RIVERO,URB. CIUDAD SATÉLITE ZONA LANIFICIO MZ. CH LOTE 13(AV. NUEVO PERU 103),8:00 a.m - 17:00 horas,09:00 a.m - 13:00 horas,-99.2342421,19.5142831
85,121,APLAO,40401,AREQUIPA,CASTILLA,APLAO,"CALLE 3 S/N, MANZANA P1, LOTE N° 3",8:00 a.m - 17:00 horas,09:00 a.m - 13:00 horas,-72.4879444,-16.0710704
86,122,CORIRE,40413,AREQUIPA,CASTILLA,URACA,CALLE PLAZA 28 DE JULIO N° 203,8:00 a.m - 17:00 horas,09:00 a.m - 13:00 horas,-72.5678041,-16.222426000000002
87,123,COTAHUASI,40801,AREQUIPA,LA UNION,COTAHUASI,CENTRO POBLADO COTAHUASI MZ. M LOTE 3,8:00 a.m - 17:00 horas,09:00 a.m - 13:00 horas,-72.89017249999999,-15.212280599999998
88,124,CHUQUIBAMBA,40601,AREQUIPA,CONDESUYOS,CHUQUIBAMBA,AV. ALAMEDA LOS TRES ERRANTES S/N,8:00 a.m - 17:00 horas,09:00 a.m - 13:00 horas,-122.2821855,37.7798721
89,127,PAMPACOLCA,40410,AREQUIPA,CASTILLA,PAMPACOLCA,PLAZA MUNICIPAL S/N,8:00 a.m - 17:00 horas,09:00 a.m - 13:00 horas,-72.57224000000001,-15.714134900000001
90,129,ORCOPAMPA,40409,AREQUIPA,CASTILLA,ORCOPAMPA,ESQUINA AV. BUENAVENTURA S/N CON LA  AV. BRASIL S/N,8:00 a.m - 17:00 horas,09:00 a.m - 13:00 horas,-72.34447790000002,-15.2684535
91,131,MOLLENDO,40701,AREQUIPA,ISLAY,MOLLENDO,CALLE COMERCIO N° 140,8:00 a.m - 17:00 horas,09:00 a.m - 13:00 horas,-72.0146808,-17.029819699999997
92,132,COCACHACRA,40702,AREQUIPA,ISLAY,COCACHACRA,"CALLE LIBERTAD N° 412, MANZANA D3 , LOTE 6",8:00 a.m - 17:00 horas,09:00 a.m - 13:00 horas,-71.7740405,-17.0922627
93,134,RIVERO,40101,AREQUIPA,AREQUIPA,AREQUIPA,CALLE RIVERO N° 107 - A,8:00 a.m - 17:00 horas,09:00 a.m - 13:00 horas,-71.5339218,-16.3987074
94,135,LA PUNTA,40706,AREQUIPA,ISLAY,PUNTA DE BOMBON,"CENTRO POBLADO LA PUNTA DE BOMBÓN MZ. T1, LT. 4",8:00 a.m - 17:00 horas,09:00 a.m - 13:00 horas,-71.7935428,-17.1701881
95,136,MATARANI,40704,AREQUIPA,ISLAY,ISLAY,ASOCIACION INDOAMERICA MZ. B LOTE 01,8:00 a.m - 17:00 horas,09:00 a.m - 13:00 horas,-6.177067,55.736253500000004
96,141,MOQUEGUA,180101,MOQUEGUA,MARISCAL NIETO,MOQUEGUA,CALLE LIMA N° 616 - ESQ. CON CALLE TACNA N° 203,7:00 a.m - 17:00 horas,09:00 a.m - 13:00 horas,-70.9347523,-17.192741899999998
97,142,CARUMAS,180102,MOQUEGUA,MARISCAL NIETO,CARUMAS,CALLE CARUMAS S/N,8:00 a.m - 17:00 horas,09:00 a.m - 13:00 horas,-70.6935555,-16.8114113
98,144,TORATA,180106,MOQUEGUA,MARISCAL NIETO,TORATA,CALLE TORATA N° 32 MZ. U LOTE 24,8:00 a.m - 17:00 horas,09:00 a.m - 13:00 horas,-70.8449703,-17.077197299999998
99,146,ILO,180301,MOQUEGUA,ILO,ILO,JR. CALLAO N° 632,7:00 a.m - 17:00 horas,09:00 a.m - 13:00 horas,-76.9100821,-12.2082201
100,149,ICHUÑA,180204,MOQUEGUA,GENERAL SANCHEZ CERRO,ICHUÑA,AV. MARISCAL CASTILLA S/N,8:00 a.m - 17:00 horas,09:00 a.m - 13:00 horas,-70.4788937,-16.126030800000002
101,151,TACNA,230101,TACNA,TACNA,TACNA,AV. SAN MARTIN N° 320 - CERCADO,7:00 a.m - 17:00 horas,09:00 a.m - 13:00 horas,-70.2505837,-18.013384
102,152,CANDARAVE,230201,TACNA,CANDARAVE,CANDARAVE,CALLE GRAU N° 103,8:00 a.m - 17:00 horas,09:00 a.m - 13:00 horas,-70.2503296,-17.268402399999996
103,153,LOCUMBA,230301,TACNA,JORGE BASADRE,LOCUMBA,CALLE BOLOGNESI N° 40,8:00 a.m - 17:00 horas,09:00 a.m - 13:00 horas,-70.7629369,-17.614459
104,154,TARATA,230401,TACNA,TARATA,TARATA,"PLAZA PRINCIPAL DE TARATA, MZ. 37 LOTE 7",8:00 a.m - 17:00 horas,09:00 a.m - 13:00 horas,-66.0255368,-17.6091383
105,155,SANTA ROSA,230101,TACNA,TACNA,TACNA,AV. PANAMERICANA SUR KL 1336 - COMPLEJO FRONTERIZO SANTA ROSA,8:00 a.m - 17:00 horas,09:00 a.m - 13:00 horas,-70.3140355,-18.3072247
106,157,GREGORIO ALBARRACIN,230110,TACNA,TACNA,CORONEL GREGORIO ALBARRACIN LANCHIPA,CONJUNTO HABITACIONAL ALFONSO UGARTE I ETAPA MZ. C LOTE 24,8:00 a.m - 17:00 horas,09:00 a.m - 13:00 horas,-70.259546,-18.0085718
107,160,ALTO DE LA ALIANZA,230102,TACNA,TACNA,ALTO DE LA ALIANZA,PROLONGACION PINTO N° 1337 CON AV. JORGE BASADRE GROHMANN,8:00 a.m - 17:00 horas,09:00 a.m - 13:00 horas,-70.2433471,-17.9944304
108,161,CUSCO,80101,CUSCO,CUSCO,CUSCO,SEGUNDA CUADRA DE AV. SOL 320,8:00 a.m - 17:00 horas,09:00 a.m - 13:00 horas,-71.9774427,-13.5195983
109,162,ACOMAYO,80201,CUSCO,ACOMAYO,ACOMAYO,PLAZA DE ARMAS S/N - CENTRO CIVICO,8:00 a.m - 17:00 horas,09:00 a.m - 13:00 horas,-71.6837041,-13.919414900000001
110,163,ANTA,80301,CUSCO,ANTA,ANTA,"ESQUINA DE CALLE FRANCISCO ZUBIAGA CON MICAELA BASTIDAS S/N, SECTOR CHIMPAHUAYA DEL BARRIO IZCUCHACA",8:00 a.m - 17:00 horas,09:00 a.m - 13:00 horas,-74.9866287,-12.506122900000001
111,164,CALCA,80401,CUSCO,CALCA,CALCA,CALLE GRAU S/N,8:00 a.m - 17:00 horas,09:00 a.m - 13:00 horas,-71.9549533,-13.324084
112,166,PARURO,81001,CUSCO,PARURO,PARURO,PLAZA DE ARMAS,8:00 a.m - 17:00 horas,09:00 a.m - 13:00 horas,-71.84739350000001,-13.7613346
113,167,SALVACION,170201,MADRE DE DIOS,MANU,MANU,AV. ESPERANZA Y CALLE TAMBOPATA S/N,8:00 a.m - 17:00 horas,09:00 a.m - 13:00 horas,-69.1932762,-12.5825295
114,168,PAUCARTAMBO,81101,CUSCO,PAUCARTAMBO,PAUCARTAMBO,PLAZA MANCO CAPAC S/N,8:00 a.m - 17:00 horas,09:00 a.m - 13:00 horas,-71.5931657,-13.314010199999998
115,169,CHALLHUAHUACHO,30506,APURIMAC,COTABAMBAS,CHALLHUAHUACHO,PLAZA DE ARMAS S/N,8:00 a.m - 17:00 horas,09:00 a.m - 13:00 horas,-72.2464676,-14.1186066
116,170,TAMBOBAMBA,30501,APURIMAC,COTABAMBAS,TAMBOBAMBA,PLAZA DE ARMAS,8:00 a.m - 17:00 horas,09:00 a.m - 13:00 horas,-72.1745153,-13.9461562
117,171,URCOS,81201,CUSCO,QUISPICANCHI,URCOS,JR. FRANCISCO ZUBIAGA N° 113,8:00 a.m - 17:00 horas,09:00 a.m - 13:00 horas,-71.6228355,-13.6824359
118,172,URUBAMBA,81301,CUSCO,URUBAMBA,URUBAMBA,ESQ. AV. SEÑOR DE TORRECHAYOC Y JR. SAGRARIO,8:00 a.m - 17:00 horas,09:00 a.m - 13:00 horas,-72.11797299999999,-13.301197
119,173,WANCHAQ,80108,CUSCO,CUSCO,WANCHAQ,AV. TOMASA TTITO CONDEMAITA N° 1207,8:00 a.m - 17:00 horas,09:00 a.m - 13:00 horas,-71.9624176,-13.525362
120,177,POMACANCHI,80205,CUSCO,ACOMAYO,POMACANCHI,CALLE CARMEN ROSA NOGUERA N° 606,8:00 a.m - 17:00 horas,09:00 a.m - 13:00 horas,-71.5704703,-14.034344599999999
121,178,MACHUPICCHU,81304,CUSCO,URUBAMBA,MACHUPICCHU,AV. IMPERIO DE LOS INCAS N° 540,8:00 a.m - 17:00 horas,09:00 a.m - 13:00 horas,-72.52592209999999,-13.154774100000001
122,180,HAQUIRA,30504,APURIMAC,COTABAMBAS,HAQUIRA,PLAZA DE ARMAS S/N,8:00 a.m - 17:00 horas,09:00 a.m - 13:00 horas,-72.189663,-14.2131536
123,181,ABANCAY,30101,APURIMAC,ABANCAY,ABANCAY,JR. LIMA N° 216 - 218,8:00 a.m - 17:00 horas,09:00 a.m - 13:00 horas,-72.87833909999999,-13.6369231
124,182,ANDAHUAYLAS,30201,APURIMAC,ANDAHUAYLAS,ANDAHUAYLAS,JR. CONSTITUCION ESQUINA CON JR. BOLIVAR N° 254,8:00 a.m - 17:00 horas,09:00 a.m - 13:00 horas,-73.39022920000001,-13.655799300000002
125,183,ANTABAMBA,30301,APURIMAC,ANTABAMBA,ANTABAMBA,JR. BOLIVAR S/N,8:00 a.m - 17:00 horas,09:00 a.m - 13:00 horas,-72.87858299999999,-14.364746799999999
126,184,HUACCANA,30604,APURIMAC,CHINCHEROS,HUACCANA,AV. 12 DE JUNIO CERCADO HUACCANA,8:00 a.m - 17:00 horas,09:00 a.m - 13:00 horas,-73.77131999999999,-13.3579174
127,185,CURAHUASI,30104,APURIMAC,ABANCAY,CURAHUASI,ESQ. JR. AUGUSTO B. LEGUIA Y APURIMAC M-1 LOTE 1,8:00 a.m - 17:00 horas,09:00 a.m - 13:00 horas,-72.63877,-13.9507426
128,186,CHALHUANCA,30401,APURIMAC,AYMARAES,CHALHUANCA,PLAZA BOLIVAR S/N,8:00 a.m - 17:00 horas,09:00 a.m - 13:00 horas,-73.2423004,-14.295195600000001
129,187,CHUQUIBAMBILLA,30701,APURIMAC,GRAU,CHUQUIBAMBILLA,AV. GRAU S/N - CENTRO CIVICO,8:00 a.m - 17:00 horas,09:00 a.m - 13:00 horas,-72.70786729999999,-14.105051800000002
130,188,HUANCARAMA,30204,APURIMAC,ANDAHUAYLAS,HUANCARAMA,PASAJE EZEQUIEL PALOMINO N° 108 (PLAZA DE ARMAS),8:00 a.m - 17:00 horas,09:00 a.m - 13:00 horas,-73.0169135,-13.6646799
131,194,POCOLLAY,230108,TACNA,TACNA,POCOLLAY,"INTERSECCION DE LA CALLE HERMANOS REYNOSO Y SAN MARTIN MZ - ""D"" LOTE 1",8:00 a.m - 17:00 horas,09:00 a.m - 13:00 horas,-70.2192393,-17.997030300000002
132,195,TALAVERA,30216,APURIMAC,ANDAHUAYLAS,TALAVERA,AV. CONFRATERNIDAD N° 150,8:00 a.m - 17:00 horas,09:00 a.m - 13:00 horas,-73.4290904,-13.6537734
133,201,PUERTO MALDONADO,170101,MADRE DE DIOS,TAMBOPATA,TAMBOPATA,"JR. DANIEL ALCIDES CARRION N° 233, MZ. H, LOTE 2",8:00 a.m - 17:00 horas,09:00 a.m - 13:00 horas,-77.008344,-12.1106909
134,202,IBERIA,170302,MADRE DE DIOS,TAHUAMANU,IBERIA,CALLE LORETO N° 701 ESQ. CON CALLE ARTURO MENACHO MZ. N° 53 LT. N° 02,8:00 a.m - 17:00 horas,09:00 a.m - 13:00 horas,-69.48879529999999,-11.407055300000001
135,204,MAZUCO,170102,MADRE DE DIOS,TAMBOPATA,INAMBARI,"PROLONGACION RAMON CASTILLA S/N, PLAZA DE ARMAS DE MAZUCO",8:00 a.m - 17:00 horas,09:00 a.m - 13:00 horas,-70.3682625,-13.0974726
136,205,IÑAPARI,170301,MADRE DE DIOS,TAHUAMANU,IÑAPARI,JR. BOLIVIA MZ. A LT. 12 DEL SECTOR CERCADO FRENTE A LA PLAZA DE ARMAS DE IÑAPARI,8:00 a.m - 17:00 horas,09:00 a.m - 13:00 horas,-69.5767704,-10.9492286
137,211,QUILLABAMBA,80901,CUSCO,LA CONVENCION,SANTA ANA,MARTIN PIO CONCHA N° 278,8:00 a.m - 17:00 horas,09:00 a.m - 13:00 horas,-72.73336040000001,-12.887791499999999
138,212,LA QUEBRADA,80408,CUSCO,CALCA,YANATILE,JR. LA CONVENCION CON ESQUINA JR. PANTIACOLLA S/N,8:00 a.m - 17:00 horas,09:00 a.m - 13:00 horas,-72.6927338,-12.864972
139,218,HUAYOPATA,80903,CUSCO,LA CONVENCION,HUAYOPATA,CALLE LUIS DE LA PUENTE UCEDA S/N - PLAZA DE ARMAS,8:00 a.m - 17:00 horas,09:00 a.m - 13:00 horas,-72.55213640000001,-13.0056949
140,221,SICUANI,80601,CUSCO,CANCHIS,SICUANI,JR. BOLOGNESI ESQ. CON JR. ARICA S/N,8:00 a.m - 17:00 horas,09:00 a.m - 13:00 horas,-71.22706240000001,-14.272696900000001
141,222,COMBAPATA,80603,CUSCO,CANCHIS,COMBAPATA,PLAZA DE  ARMAS N° 234 CENTRO CIVICO,8:00 a.m - 17:00 horas,09:00 a.m - 13:00 horas,-71.4307789,-14.100899100000001
142,223,SANTO TOMAS,80701,CUSCO,CHUMBIVILCAS,SANTO TOMAS,ESQUINAS DE LAS  CALLES MIRAFLORES Y CUSCO S/N,7:00 a.m - 17:00 horas,09:00 a.m - 13:00 horas,-72.0794063,-14.4485861
143,225,YANAOCA,80501,CUSCO,CANAS,YANAOCA,PLAZA DE ARMAS S/N,8:00 a.m - 17:00 horas,09:00 a.m - 13:00 horas,-71.4314206,-14.2171388
144,226,YAURI,80801,CUSCO,ESPINAR,ESPINAR,PLAZA DE ARMAS N° 102,8:00 a.m - 17:00 horas,09:00 a.m - 13:00 horas,-71.4131257,-14.792672400000002
145,227,ECHARATE,80902,CUSCO,LA CONVENCION,ECHARATE,PLAZA DE ARMAS S/N,8:00 a.m - 17:00 horas,09:00 a.m - 13:00 horas,-72.59468309999998,-12.775618199999998
146,228,KITENI,80902,CUSCO,LA CONVENCION,ECHARATE,CENTRO CIVICO DEL CENTRO POBLADO DE KITENI,8:00 a.m - 17:00 horas,09:00 a.m - 13:00 horas,-73.0481735,-12.6478324
147,229,VILCABAMBA,80909,CUSCO,LA CONVENCION,VILCABAMBA,PLAZA DE ARMAS S/N,8:00 a.m - 17:00 horas,09:00 a.m - 13:00 horas,-72.9366998,-13.0974605
148,230,JOSE LEONARDO ORTIZ,140105,LAMBAYEQUE,CHICLAYO,JOSE LEONARDO ORTIZ,CALLE CRUZ DE CHALPON N° 136 - URB. LATINA,8:00 a.m - 17:00 horas,09:00 a.m - 13:00 horas,-79.8355652,-6.760684299999999
149,231,CHICLAYO,140101,LAMBAYEQUE,CHICLAYO,CHICLAYO,CALLE ELIAS AGUIRRE N° 100,7:00 a.m - 17:00 horas,09:00 a.m - 13:00 horas,-79.8447438,-6.771427
150,232,CHONGOYAPE,140102,LAMBAYEQUE,CHICLAYO,CHONGOYAPE,AVENIDA LIMA N° 1225 DEL PUEBLO TRADICIONAL DE CHONGOYAPE,8:00 a.m - 17:00 horas,09:00 a.m - 13:00 horas,-77.042754,-12.0463731
151,233,ETEN,140103,LAMBAYEQUE,CHICLAYO,ETEN,CALLE MANUEL C. BONILLA N° 708 MZ. 101 LOTE 29,8:00 a.m - 17:00 horas,09:00 a.m - 13:00 horas,-79.8624861,-6.907954400000001
152,234,FERREÑAFE,140201,LAMBAYEQUE,FERREÑAFE,FERREÑAFE,CALLE UNION N° 512 - 516,8:00 a.m - 17:00 horas,09:00 a.m - 13:00 horas,-79.7876962,-6.638683
153,235,LA FLORIDA,61106,CAJAMARCA,SAN MIGUEL,LA FLORIDA,CALLE MARISCAL RAMON CASTILLA N° 28 SECTOR CASERIO AGUA AZUL,8:00 a.m - 17:00 horas,09:00 a.m - 13:00 horas,-81.5157535,27.664827399999997
154,236,MONSEFU,140108,LAMBAYEQUE,CHICLAYO,MONSEFU,CALLE MANUEL MARIA IZAGA N° 546,8:00 a.m - 17:00 horas,09:00 a.m - 13:00 horas,-79.83971340000001,-6.773237299999999
155,237,OYOTUN,140110,LAMBAYEQUE,CHICLAYO,OYOTUN,ESQUINA TARAPACA Y ALFONSO UGARTE,8:00 a.m - 17:00 horas,09:00 a.m - 13:00 horas,-69.28775350000001,-20.2028799
156,238,PIMENTEL,140112,LAMBAYEQUE,CHICLAYO,PIMENTEL,CALLE MIGUEL GRAU S/N CRDA. 02,8:00 a.m - 17:00 horas,09:00 a.m - 13:00 horas,-79.92961600000001,-6.8324793
157,239,PUERTO ETEN,140104,LAMBAYEQUE,CHICLAYO,ETEN PUERTO,CALLE DIEGO FERRE N° 376,8:00 a.m - 17:00 horas,09:00 a.m - 13:00 horas,-79.86630699999999,-6.9273417
158,240,REQUE,140113,LAMBAYEQUE,CHICLAYO,REQUE,ELIAS AGUIRRE N° 229,8:00 a.m - 17:00 horas,09:00 a.m - 13:00 horas,-79.81892890000002,-6.865769099999999
159,241,CAYALTI,140116,LAMBAYEQUE,CHICLAYO,CAYALTI,CALLE TUPAC AMARU N° 109,8:00 a.m - 17:00 horas,09:00 a.m - 13:00 horas,-79.86520279999999,-6.7709978
160,242,POMALCA,140118,LAMBAYEQUE,CHICLAYO,POMALCA,AV. 24 DE JUNIO N° 90 - SECTOR 09,8:00 a.m - 17:00 horas,09:00 a.m - 13:00 horas,-79.63835879999999,-6.812432
161,243,PUCALA,140119,LAMBAYEQUE,CHICLAYO,PUCALA,CALLE TUPAC AMARU N° 1,8:00 a.m - 17:00 horas,09:00 a.m - 13:00 horas,-79.52693359999999,-6.777246400000001
162,244,SANTA CRUZ,61301,CAJAMARCA,SANTA CRUZ,SANTA CRUZ,CALLE JUAN UGAZ N° 155 - 157,8:00 a.m - 17:00 horas,09:00 a.m - 13:00 horas,-78.9434855,-6.626054400000001
163,245,TUMAN,140120,LAMBAYEQUE,CHICLAYO,TUMAN,AV. EL TREN N° 903,8:00 a.m - 17:00 horas,09:00 a.m - 13:00 horas,-79.69911280000001,-6.749784
164,248,PERIFERICA CHICLAYO,140101,LAMBAYEQUE,CHICLAYO,CHICLAYO,CALLE JUAN CUGLIEVAN N° 673,8:00 a.m - 17:00 horas,09:00 a.m - 13:00 horas,-79.84060009999999,-6.772130000000001
165,250,LA VICTORIA,140106,LAMBAYEQUE,CHICLAYO,LA VICTORIA,AV. LOS INCAS N° 1012,8:00 a.m - 17:00 horas,09:00 a.m - 13:00 horas,-79.83977270000001,-6.7985936
166,251,NINABAMBA,61306,CAJAMARCA,SANTA CRUZ,NINABAMBA,CALLE BURGA LARREA S/N MANZANA 8 LOTE 2,8:00 a.m - 17:00 horas,09:00 a.m - 13:00 horas,-78.7816219,-6.6951815
167,252,MOCUPE,140107,LAMBAYEQUE,CHICLAYO,LAGUNAS,"CALLE INDEPENDENCIA N° 447, LAGUNAS 14701",8:00 a.m - 17:00 horas,09:00 a.m - 13:00 horas,-79.6249446,-6.9913011
168,253,PATAPO,140117,LAMBAYEQUE,CHICLAYO,PATAPO,AV. TRAPICHE,8:00 a.m - 17:00 horas,09:00 a.m - 13:00 horas,-79.63851120000001,-6.7380269
169,261,CHACHAPOYAS,10101,AMAZONAS,CHACHAPOYAS,CHACHAPOYAS,JR. AYACUCHO N° 801,8:00 a.m - 17:00 horas,09:00 a.m - 13:00 horas,-74.22356409999999,-13.1638737
170,263,JAZAN,10307,AMAZONAS,BONGARA,JAZAN,JR. TORIBIO RODRIGUEZ DE MENDOZA N° 215 MZ. 68 LOTE 02 - CENTRO POBLADO PEDRO RUIZ GALLO,8:00 a.m - 17:00 horas,09:00 a.m - 13:00 horas,-77.9767202,-5.9435412
171,264,JUMBILLA,10301,AMAZONAS,BONGARA,JUMBILLA,ESQUINA DE LOS JIRONES GARCILAZO DE LA VEGA Y EMIGDIO LOPEZ HUAMAN S/N,8:00 a.m - 17:00 horas,09:00 a.m - 13:00 horas,-77.792343,-5.857687
172,265,LAMUD,10501,AMAZONAS,LUYA,LAMUD,JR. GRAU N° 536 - BARRIO SANTA ANA,8:00 a.m - 17:00 horas,09:00 a.m - 13:00 horas,-77.95052609999999,-6.1362220999999995
173,266,MENDOZA,10601,AMAZONAS,RODRIGUEZ DE MENDOZA,SAN NICOLAS,JR. TORIBIO RODRIGUEZ DE MENDOZA N° 309,8:00 a.m - 17:00 horas,09:00 a.m - 13:00 horas,-77.481665,-6.3953125
174,267,OCALLI,10512,AMAZONAS,LUYA,OCALLI,AV. LIBERTAD N° 735,8:00 a.m - 17:00 horas,09:00 a.m - 13:00 horas,-78.2682596,-6.2352032
175,272,BAMBAMARCA,60701,CAJAMARCA,HUALGAYOC,BAMBAMARCA,JR. FRANCISCO BOLOGNESI N° 416 MZ. 75 LOTE 3,8:00 a.m - 17:00 horas,09:00 a.m - 13:00 horas,-78.52245440000002,-6.6810594
176,274,CUTERVO,60601,CAJAMARCA,CUTERVO,CUTERVO,JR. BENJAMIN DUBLE N° 496,8:00 a.m - 17:00 horas,09:00 a.m - 13:00 horas,-78.81712590000001,-6.378149
177,275,HUAMBOS,60409,CAJAMARCA,CHOTA,HUAMBOS,JR. MIGUEL GRAU S/N (ESQUINA CON CALLE BOLIVAR),8:00 a.m - 17:00 horas,09:00 a.m - 13:00 horas,-78.9613486,-6.4537339000000005
178,276,HUALGAYOC,60703,CAJAMARCA,HUALGAYOC,HUALGAYOC,JR. SILVA SANTISTEBAN N° 276,8:00 a.m - 17:00 horas,09:00 a.m - 13:00 horas,-78.60816390000001,-6.7653487000000005
179,278,QUEROCOTILLO,60607,CAJAMARCA,CUTERVO,QUEROCOTILLO,JR. AREQUIPA N° 348,8:00 a.m - 17:00 horas,09:00 a.m - 13:00 horas,-71.537451,-16.409047400000002
180,279,QUEROCOTO,60415,CAJAMARCA,CHOTA,QUEROCOTO,JR. SANTA ROSA N° 151,8:00 a.m - 17:00 horas,09:00 a.m - 13:00 horas,-122.7140548,38.440428999999995
181,280,YAUYUCAN,61311,CAJAMARCA,SANTA CRUZ,YAUYUCAN,AV. CAJAMARCA S/N - CENTRO CIVICO,8:00 a.m - 17:00 horas,09:00 a.m - 13:00 horas,-78.81985909999999,-6.6763360999999986
182,281,TACABAMBA,60417,CAJAMARCA,CHOTA,TACABAMBA,JR. JOSE OLAYA N° 548,8:00 a.m - 17:00 horas,09:00 a.m - 13:00 horas,-78.611005,-6.3941905
183,282,PACCHA,60413,CAJAMARCA,CHOTA,PACCHA,JR. AMAZONAS S/N,8:00 a.m - 17:00 horas,09:00 a.m - 13:00 horas,-78.423322,-6.4973475999999994
184,284,SOCOTA,60614,CAJAMARCA,CUTERVO,SOCOTA,"CALLE 14 DE MAYO FRENTE A LA PLAZA DE ARMAS, LOCALIDAD DE SOCOTA",8:00 a.m - 17:00 horas,09:00 a.m - 13:00 horas,-78.69898909999999,-6.316448599999999
185,285,SANTO TOMAS,60613,CAJAMARCA,CUTERVO,SANTO TOMAS,CALLE VIA MARAÑON N° 361,8:00 a.m - 17:00 horas,09:00 a.m - 13:00 horas,-78.685964,-6.153126599999999
186,286,CATACHE,61303,CAJAMARCA,SANTA CRUZ,CATACHE,AV. SAN AGUSTIN N° 475,8:00 a.m - 17:00 horas,09:00 a.m - 13:00 horas,-79.0326968,-6.673703
187,291,JAEN,60801,CAJAMARCA,JAEN,JAEN,"CALLE MARISCAL CASTILLA N° 765, SECTOR PUEBLO NUEVO",8:00 a.m - 17:00 horas,09:00 a.m - 13:00 horas,-78.80971140000001,-5.703985299999999
188,292,BAGUA CHICA,10206,AMAZONAS,BAGUA,LA PECA,JR. 28 DE JULIO N° 501,8:00 a.m - 17:00 horas,09:00 a.m - 13:00 horas,-78.4410895,-5.583567700000001
189,293,BAGUA GRANDE,10701,AMAZONAS,UTCUBAMBA,BAGUA GRANDE,AV. VALDELOMAR Y J. SANTOS CHOCANO,8:00 a.m - 17:00 horas,09:00 a.m - 13:00 horas,-78.440709,-5.7580464000000005
190,294,LONYA GRANDE,10706,AMAZONAS,UTCUBAMBA,LONYA GRANDE,JR. DOS DE MAYO N° 260,8:00 a.m - 17:00 horas,09:00 a.m - 13:00 horas,-78.4233329,-6.093907
191,295,PUCARA,60808,CAJAMARCA,JAEN,PUCARA,AV. LINDO N° 118,8:00 a.m - 17:00 horas,09:00 a.m - 13:00 horas,-79.1292572,-6.0398693
192,296,SAN IGNACIO,60901,CAJAMARCA,SAN IGNACIO,SAN IGNACIO,JR. EL CARMEN N° 801,8:00 a.m - 17:00 horas,09:00 a.m - 13:00 horas,-78.99668879999999,-5.1516056
193,297,CUMBA,10703,AMAZONAS,UTCUBAMBA,CUMBA,INTERSECCIONES DE LA AV. SAN PEDRO Y JR. UNION S/N,8:00 a.m - 17:00 horas,09:00 a.m - 13:00 horas,-78.6646942,-5.9341855
194,298,SANTA MARIA DE NIEVA,10401,AMAZONAS,CONDORCANQUI,NIEVA,ESQUINA DEL JIRON GONZALO PUERTA N° 100 Y EL JIRON CIRO ALEGRIA DE LA VILLA SANTA MARIA DE NIEVA,7:00 a.m - 17:00 horas,09:00 a.m - 13:00 horas,-77.8610254,-4.6010065
195,300,IMAZA - CHIRIACO,10205,AMAZONAS,BAGUA,IMAZA,"AV. PRINCIPAL Y EL JR. JUNIN, MANZANA 08, LOTE 14",8:00 a.m - 17:00 horas,09:00 a.m - 13:00 horas,-78.38422270000001,-5.038421
196,301,LAMBAYEQUE,140301,LAMBAYEQUE,LAMBAYEQUE,LAMBAYEQUE,AVENIDA HUAMACHUCO N° 480,8:00 a.m - 17:00 horas,09:00 a.m - 13:00 horas,-79.9036911,-6.702055400000001
197,302,JAYANCA,140304,LAMBAYEQUE,LAMBAYEQUE,JAYANCA,CALLE ELIAS AGUIRRE N° 460,8:00 a.m - 17:00 horas,09:00 a.m - 13:00 horas,-79.822587,-6.3909515
198,303,MOCHUMI,140305,LAMBAYEQUE,LAMBAYEQUE,MOCHUMI,CALLE SAN MARTIN N° 836,8:00 a.m - 17:00 horas,09:00 a.m - 13:00 horas,-79.8646835,-6.548892400000001
199,304,MORROPE,140306,LAMBAYEQUE,LAMBAYEQUE,MORROPE,CALLE SANTA ROSA N° 451,8:00 a.m - 17:00 horas,09:00 a.m - 13:00 horas,-80.0155915,-6.540203400000001
200,305,MOTUPE,140307,LAMBAYEQUE,LAMBAYEQUE,MOTUPE,CALLE GARCILAZO DE LA VEGA N° 350,8:00 a.m - 17:00 horas,09:00 a.m - 13:00 horas,-79.71666809999999,-6.1543789
201,306,OLMOS,140308,LAMBAYEQUE,LAMBAYEQUE,OLMOS,CALLE SANTO DOMINGO N° 734,8:00 a.m - 17:00 horas,09:00 a.m - 13:00 horas,-79.7472353,-5.9878055
202,309,TUCUME,140312,LAMBAYEQUE,LAMBAYEQUE,TUCUME,CALLE VICTORIA N° 498,8:00 a.m - 17:00 horas,09:00 a.m - 13:00 horas,-79.85977700000001,-6.5102108
203,313,CHONTALI,60803,CAJAMARCA,JAEN,CHONTALI,CALLE COMERCIO S/N - CUADRA N° 1,8:00 a.m - 17:00 horas,09:00 a.m - 13:00 horas,-79.0872821,-5.6450629999999995
204,314,NAMBALLE,60905,CAJAMARCA,SAN IGNACIO,NAMBALLE,JR. EL EJERCITO N° 100,8:00 a.m - 17:00 horas,09:00 a.m - 13:00 horas,-78.9961588,-5.1552819
205,321,HUACHO,150801,LIMA,HUAURA,HUACHO,AV. 28 DE JULIO N° 388,8:00 a.m - 17:00 horas,09:00 a.m - 13:00 horas,-77.6081983,-11.107310400000001
206,322,CHURIN,150906,LIMA,OYON,PACHANGARA,"AV. LARCO HERRERA N° 281, BALNEARIO DE CHURIN",8:00 a.m - 17:00 horas,09:00 a.m - 13:00 horas,-76.8772733,-10.8170394
207,323,HUAURA,150806,LIMA,HUAURA,HUAURA,SAN MARTIN N° 359,8:00 a.m - 17:00 horas,09:00 a.m - 13:00 horas,-77.5993392,-11.0685846
208,324,OYON,150901,LIMA,OYON,OYON,PLAZA DE ARMAS N° 104-B,8:00 a.m - 17:00 horas,09:00 a.m - 13:00 horas,-76.7735663,-10.667781699999999
209,325,SAYAN,150811,LIMA,HUAURA,SAYAN,CALLE COMERCIO N° 301,8:00 a.m - 17:00 horas,09:00 a.m - 13:00 horas,-77.1940497,-11.1352884
210,331,BARRANCA,150201,LIMA,BARRANCA,BARRANCA,AV. PRIMAVERA N° 188 - 190,7:00 a.m - 17:00 horas,09:00 a.m - 13:00 horas,-77.7606021,-10.7550797
211,333,PARAMONGA,150202,LIMA,BARRANCA,PARAMONGA,AV. MICAELA BASTIDAS N° 226,8:00 a.m - 17:00 horas,09:00 a.m - 13:00 horas,-77.819763,-10.676703999999999
212,334,PATIVILCA,150203,LIMA,BARRANCA,PATIVILCA,JR. BOLIVAR N° 219,8:00 a.m - 17:00 horas,09:00 a.m - 13:00 horas,-77.7766767,-10.696130300000002
213,335,PUEBLO SUPE,150204,LIMA,BARRANCA,SUPE,CALLE BOLIVAR N° 445,8:00 a.m - 17:00 horas,09:00 a.m - 13:00 horas,-77.7137306,-10.7987521
214,336,PUERTO SUPE,150205,LIMA,BARRANCA,SUPE PUERTO,CALLE CALLAO N° 226,8:00 a.m - 17:00 horas,09:00 a.m - 13:00 horas,-77.76677149999999,-10.745726699999999
215,341,CARAZ,21201,ANCASH,HUAYLAS,CARAZ,JR. RAYMONDI S/N,8:00 a.m - 17:00 horas,09:00 a.m - 13:00 horas,-77.80664759999999,-9.0486981
216,342,CORONGO,20901,ANCASH,CORONGO,CORONGO,JR. MARISCAL CASTILLA N° 199,8:00 a.m - 17:00 horas,09:00 a.m - 13:00 horas,-77.9081752,-8.5811878
217,344,HUAYLAS,21204,ANCASH,HUAYLAS,HUAYLAS,PLAZA DE ARMAS S/N,8:00 a.m - 17:00 horas,09:00 a.m - 13:00 horas,-77.8104239,-9.0477808
218,345,PISCOBAMBA,21301,ANCASH,MARISCAL LUZURIAGA,PISCOBAMBA,JR. CESAR VALLEJO S/N,8:00 a.m - 17:00 horas,09:00 a.m - 13:00 horas,-77.3597194,-8.8667621
219,347,SIHUAS,21901,ANCASH,SIHUAS,SIHUAS,JR. SAN MARTIN N° 145,7:00 a.m - 17:00 horas,09:00 a.m - 13:00 horas,-77.62926970000001,-8.5547681
220,353,YUNGAY,22001,ANCASH,YUNGAY,YUNGAY,"JR. INES DE SALAS S/N MANZANA ""J"" LOTE 7A",8:00 a.m - 17:00 horas,09:00 a.m - 13:00 horas,-77.74514559999999,-9.1394959
221,357,HUACAYBAMBA,100401,HUANUCO,HUACAYBAMBA,HUACAYBAMBA,AV. EL EJERCITO S/N - PLAZA DE ARMAS,8:00 a.m - 17:00 horas,09:00 a.m - 13:00 horas,-76.9520515,-9.038197
222,361,HUARAL,150601,LIMA,HUARAL,HUARAL,BENJAMIN VISQUERRA N° 219,7:00 a.m - 17:00 horas,09:00 a.m - 13:00 horas,-77.20813509999999,-11.495964500000001
223,363,CHANCAY,150605,LIMA,HUARAL,CHANCAY,CALLE LUIS FELIPE DEL SOLAR N° 106,8:00 a.m - 17:00 horas,09:00 a.m - 13:00 horas,-77.2093221,-11.4966828
224,371,HUARAZ,20101,ANCASH,HUARAZ,HUARAZ,AV. LUZURIAGA N° 669 - 673 - MZA. CONJUNTO COMERCIAL LOTE 09,7:00 a.m - 17:00 horas,09:00 a.m - 13:00 horas,-77.5290774,-9.5287168
225,373,CARHUAZ,20601,ANCASH,CARHUAZ,CARHUAZ,AV. LA MERCED N° 633,8:00 a.m - 17:00 horas,09:00 a.m - 13:00 horas,-77.6467944,-9.2815074
226,374,CHIQUIAN,20501,ANCASH,BOLOGNESI,CHIQUIAN,JR. COMERCIO S/N MZ. S4 LT. 15,8:00 a.m - 17:00 horas,09:00 a.m - 13:00 horas,-77.15570629999999,-10.152419
227,375,CHACAS,20401,ANCASH,ASUNCION,CHACAS,JR. ANCASH S/N,8:00 a.m - 17:00 horas,09:00 a.m - 13:00 horas,-77.3683319,-9.162084199999999
228,376,HUARI,21001,ANCASH,HUARI,HUARI,JR. SAN MARTIN N° 1001 ESQUINA CON JR. ELEAZAR GUZMAN S/N,8:00 a.m - 17:00 horas,09:00 a.m - 13:00 horas,-77.17080390000001,-9.3483845
229,377,LLAMELLIN,20301,ANCASH,ANTONIO RAYMONDI,LLAMELLIN,PLAZA DE ARMAS N° 122,8:00 a.m - 17:00 horas,09:00 a.m - 13:00 horas,-77.01470400000001,-9.1034282
230,378,RECUAY,21701,ANCASH,RECUAY,RECUAY,PLAZA DE ARMAS N° 194,8:00 a.m - 17:00 horas,09:00 a.m - 13:00 horas,-77.4563036,-9.722118199999999
231,379,SAN LUIS,20701,ANCASH,CARLOS FERMIN FITZCARRALD,SAN LUIS,JR. RAMON CASTILLA ESQUINA CON JR. FITZCARRALD S/N,8:00 a.m - 17:00 horas,09:00 a.m - 13:00 horas,-77.328135,-9.0956187
232,380,SAN MARCOS,21014,ANCASH,HUARI,SAN MARCOS,JR. GRAU N° 445 - PLAZA DE ARMAS,8:00 a.m - 17:00 horas,09:00 a.m - 13:00 horas,-77.208588,-9.555578
233,381,HUANCAYO,120101,JUNIN,HUANCAYO,HUANCAYO,SANTIAGO NORERO N° 462,7:00 a.m - 17:00 horas,09:00 a.m - 13:00 horas,-75.2164958,-12.0576662
234,382,CONCEPCION,120201,JUNIN,CONCEPCION,CONCEPCION,AV. MARISCAL CACERES N° 339,8:00 a.m - 17:00 horas,09:00 a.m - 13:00 horas,-75.3131215,-11.9190484
235,383,CHUPACA,120901,JUNIN,CHUPACA,CHUPACA,JR. BRUNO TERREROS N° 414,8:00 a.m - 17:00 horas,09:00 a.m - 13:00 horas,-75.28734770000001,-12.0623162
236,385,CHONGOS ALTO,120108,JUNIN,HUANCAYO,CHONGOS ALTO,ESQUINA DE LA CALLE REAL S/N Y CALLE LILBERTAD S/N,8:00 a.m - 17:00 horas,09:00 a.m - 13:00 horas,-75.2888041,-12.3117669
237,386,PERIFERICA HUANCAYO,120101,JUNIN,HUANCAYO,HUANCAYO,JR. SANTIAGO NORERO N° 440 - 446 - 458 - 462,7:00 a.m - 17:00 horas,09:00 a.m - 13:00 horas,-75.21642779999999,-12.057623399999999
238,388,CHILCA,120107,JUNIN,HUANCAYO,CHILCA,AV. 9 DE DICIEMBRE N° 590,8:00 a.m - 17:00 horas,09:00 a.m - 13:00 horas,-75.2055391,-12.084556599999999
239,389,CHAVIN DE HUANTAR,21004,ANCASH,HUARI,CHAVIN DE HUANTAR,JR. HUAYNA CAPAC N° 325 MZ. R3 LOTE 10 BARRIO URA,8:00 a.m - 17:00 horas,09:00 a.m - 13:00 horas,-77.175836,-9.5954724
240,392,UCO,21016,ANCASH,HUARI,UCO,JR. NICOLAS DE PIEROLA S/N,8:00 a.m - 17:00 horas,09:00 a.m - 13:00 horas,-76.9354979,-9.188554400000001
241,393,INDEPENDENCIA,20105,ANCASH,HUARAZ,INDEPENDENCIA,JR. GUZMAN BARRON N° 719,8:00 a.m - 17:00 horas,09:00 a.m - 13:00 horas,-77.5312699,-9.5171075
242,401,AYACUCHO,50101,AYACUCHO,HUAMANGA,AYACUCHO,JR. 28 DE JULIO N° 167,7:00 a.m - 17:00 horas,09:00 a.m - 13:00 horas,-74.22657790000001,-13.1615663
243,402,CANGALLO,50201,AYACUCHO,CANGALLO,CANGALLO,AV. 17 DE DICIEMBRE N° 136,8:00 a.m - 17:00 horas,09:00 a.m - 13:00 horas,-74.144102,-13.629326
244,403,CHINCHEROS,30601,APURIMAC,CHINCHEROS,CHINCHEROS,JR. GRAU N° 337 ESQ. CON EL JR. ANTONIO RAYMONDI,8:00 a.m - 17:00 horas,09:00 a.m - 13:00 horas,-73.723513,-13.5177661
245,404,HUANCAPI,51001,AYACUCHO,VICTOR FAJARDO,HUANCAPI,JR. CUSCO N° 315 (PLAZA PRINCIPAL),8:00 a.m - 17:00 horas,09:00 a.m - 13:00 horas,-71.96746259999999,-13.53195
246,405,HUANTA,50401,AYACUCHO,HUANTA,HUANTA,JR. JULIO C. TELLO N° 181,8:00 a.m - 17:00 horas,09:00 a.m - 13:00 horas,-74.2508325,-12.9363426
247,406,SURCUBAMBA,90717,HUANCAVELICA,TAYACAJA,SURCUBAMBA,PLAZA PRINCIPAL S/N,8:00 a.m - 17:00 horas,09:00 a.m - 13:00 horas,-74.6341875,-12.123081800000001
248,407,SANTILLANA,50406,AYACUCHO,HUANTA,SANTILLANA,PLAZA PRINCIPAL N° 260 - SAN JOSE DE SECCE,8:00 a.m - 17:00 horas,09:00 a.m - 13:00 horas,-74.25241290000001,-12.7662646
249,408,SAN MIGUEL,50501,AYACUCHO,LA MAR,SAN MIGUEL,AV. RAMON CASTILLA N° 207,8:00 a.m - 17:00 horas,09:00 a.m - 13:00 horas,-73.9793298,-13.012965300000001
250,409,TAMBO,50508,AYACUCHO,LA MAR,TAMBO,PLAZA PRINCIPAL S/N,8:00 a.m - 17:00 horas,09:00 a.m - 13:00 horas,-74.01985570000001,-12.9483405
251,411,VILCAS HUAMAN,51101,AYACUCHO,VILCAS HUAMAN,VILCAS HUAMAN,"PORTAL ""WILKAHUAMAN"" S/N - PLAZA PRINCIPAL",8:00 a.m - 17:00 horas,09:00 a.m - 13:00 horas,-73.9521468,-13.6541087
252,412,QUEROBAMBA,50901,AYACUCHO,SUCRE,QUEROBAMBA,JR. SAN MARTIN S/N PLAZA MAYOR,8:00 a.m - 17:00 horas,09:00 a.m - 13:00 horas,-73.8183804,-13.989166199999998
253,414,CHURCAMPA,90501,HUANCAVELICA,CHURCAMPA,CHURCAMPA,JR. REAL N°342,8:00 a.m - 17:00 horas,09:00 a.m - 13:00 horas,-74.38660390000001,-12.738824300000001
254,415,SAN FRANCISCO,50503,AYACUCHO,LA MAR,AYNA,AV. HUANTA S/N,8:00 a.m - 17:00 horas,09:00 a.m - 13:00 horas,-73.791055,-12.6235962
255,416,PICHARI,80910,CUSCO,LA CONVENCION,PICHARI,"JR. CESAR VALLEJO S/N, PLAZA PRINCIPAL",8:00 a.m - 17:00 horas,09:00 a.m - 13:00 horas,-73.8290997,-12.521894699999999
256,417,SIVIA,50407,AYACUCHO,HUANTA,SIVIA,"AV. GERVASIO SANTILLANA S/N, PLAZA PRINCIPAL",8:00 a.m - 17:00 horas,09:00 a.m - 13:00 horas,-73.86021070000001,-12.5097778
257,418,PUCACOLPA,50411,AYACUCHO,HUANTA,PUCACOLPA,PLAZA PRINCIPAL DEL CENTRO POBLADO DE HUALLHUA,8:00 a.m - 17:00 horas,09:00 a.m - 13:00 horas,-74.6900429,-14.838741
258,419,PALMAPAMPA,50509,AYACUCHO,LA MAR,SAMUGARI,"JR. LOS LAURELES S/N, MZ. R. LOTE 23, PLAZA PRINCIPAL",8:00 a.m - 17:00 horas,09:00 a.m - 13:00 horas,-73.65631490000001,-12.7682573
259,420,PAUCARBAMBA,90507,HUANCAVELICA,CHURCAMPA,PAUCARBAMBA,AVENIDA INTEGRACION S/N PLAZA PRINCIPAL,8:00 a.m - 17:00 horas,09:00 a.m - 13:00 horas,-74.5463307,-12.5482615
260,421,HUANCAVELICA,90101,HUANCAVELICA,HUANCAVELICA,HUANCAVELICA,AV. ESCALONADA N° 119 - 123 - 127 DEL BARRIO SAN CRISTOBAL,7:00 a.m - 17:00 horas,09:00 a.m - 13:00 horas,-74.9739458,-12.7836644
261,422,ACOBAMBA,90201,HUANCAVELICA,ACOBAMBA,ACOBAMBA,JR. SAENZ PEÑA S/N,8:00 a.m - 17:00 horas,09:00 a.m - 13:00 horas,-74.5697394,-12.842492300000002
262,423,PAUCARA,90206,HUANCAVELICA,ACOBAMBA,PAUCARA,PLAZA PRINCIPAL S/N,8:00 a.m - 17:00 horas,09:00 a.m - 13:00 horas,-74.667855,-12.7304534
263,424,CASTROVIRREYNA,90401,HUANCAVELICA,CASTROVIRREYNA,CASTROVIRREYNA,AV. SAN MARTIN N° 192,8:00 a.m - 17:00 horas,09:00 a.m - 13:00 horas,-75.31889740000001,-13.2765654
264,426,LIRCAY,90301,HUANCAVELICA,ANGARAES,LIRCAY,JR. DE LA UNION N° 160,8:00 a.m - 17:00 horas,09:00 a.m - 13:00 horas,-74.7246779,-12.9905885
265,427,YAULI,90117,HUANCAVELICA,HUANCAVELICA,YAULI,JR. 23 DE JUNIO S/N PLAZA PRINCIPAL,8:00 a.m - 17:00 horas,09:00 a.m - 13:00 horas,-74.850439,-12.770575
266,428,ACORIA,90103,HUANCAVELICA,HUANCAVELICA,ACORIA,PLAZA SAN LORENZO S/N,8:00 a.m - 17:00 horas,09:00 a.m - 13:00 horas,-74.86154309999999,-12.642739500000001
267,430,CHUNGUI,50505,AYACUCHO,LA MAR,CHUNGUI,MANZANA P1 / INTERIOR LOTE N° 1,8:00 a.m - 17:00 horas,09:00 a.m - 13:00 horas,-73.41802109999999,-13.312219699999998
268,431,JAUJA,120401,JUNIN,JAUJA,JAUJA,JR. BOLIVAR N° 833,8:00 a.m - 17:00 horas,09:00 a.m - 13:00 horas,-75.49896650000001,-11.7744099
269,433,APATA,120403,JUNIN,JAUJA,APATA,JR. AYACUCHO N° 1036,8:00 a.m - 17:00 horas,09:00 a.m - 13:00 horas,-75.4998818,-11.7768148
270,441,LA OROYA,120801,JUNIN,YAULI,LA OROYA,JIRON HORACIO ZEVALLOS GAMEZ N° 315,8:00 a.m - 17:00 horas,09:00 a.m - 13:00 horas,-75.9076968,-11.522068199999998
271,451,PAMPAS,90701,HUANCAVELICA,TAYACAJA,PAMPAS,JR. ALFONSO UGARTE N° 298,8:00 a.m - 17:00 horas,09:00 a.m - 13:00 horas,-74.86545090000001,-12.3990236
272,453,COLCABAMBA,90705,HUANCAVELICA,TAYACAJA,COLCABAMBA,AV. CENTENARIO S/N,8:00 a.m - 17:00 horas,09:00 a.m - 13:00 horas,-74.86425059999999,-12.3979761
273,461,TARMA,120701,JUNIN,TARMA,TARMA,AV. CASTILLA N° 168,7:00 a.m - 17:00 horas,09:00 a.m - 13:00 horas,-75.69302929999999,-11.4197757
274,462,ACOBAMBA,120702,JUNIN,TARMA,ACOBAMBA,JR. LIMA N° 592,8:00 a.m - 17:00 horas,09:00 a.m - 13:00 horas,-75.6900407,-11.419690899999999
275,464,HUASAHUASI,120704,JUNIN,TARMA,HUASAHUASI,JR. PIEDRALIZA N° 104,8:00 a.m - 17:00 horas,09:00 a.m - 13:00 horas,-75.6491753,-11.264801199999999
276,470,LA MERCED,120301,JUNIN,CHANCHAMAYO,CHANCHAMAYO,JR. AREQUIPA N° 425 - 431 DEL SECTOR 05,8:00 a.m - 17:00 horas,09:00 a.m - 13:00 horas,-71.537451,-16.409047400000002
277,471,OXAPAMPA,190301,PASCO,OXAPAMPA,OXAPAMPA,JR. GRAU N° 141,8:00 a.m - 17:00 horas,09:00 a.m - 13:00 horas,-75.40341529999999,-10.574385099999999
278,472,SAN RAMON,120305,JUNIN,CHANCHAMAYO,SAN RAMON,JR. RODRIGUEZ N° 136-146,8:00 a.m - 17:00 horas,09:00 a.m - 13:00 horas,-75.3587075,-11.1215276
279,473,SATIPO,120601,JUNIN,SATIPO,SATIPO,JR. FRANCISCO IRAZOLA N° 625,7:00 a.m - 17:00 horas,09:00 a.m - 13:00 horas,-74.6431816,-11.252880699999999
280,474,PUERTO BERMUDEZ,190306,PASCO,OXAPAMPA,PUERTO BERMUDEZ,PARQUE LOS FUNDADORES MZ. 2 LOTE 3,8:00 a.m - 17:00 horas,09:00 a.m - 13:00 horas,-74.93566650000001,-10.297430499999999
281,475,VILLA RICA,190307,PASCO,OXAPAMPA,VILLA RICA,AV. LEOPOLDO KRAUSE N° 591,8:00 a.m - 17:00 horas,09:00 a.m - 13:00 horas,-75.269671,-10.7367864
282,476,PICHANAQUI,120303,JUNIN,CHANCHAMAYO,PICHANAQUI,"AV. MICAELA BASTIDAS N° 595, ZONA BAJA II - SECTOR",8:00 a.m - 17:00 horas,09:00 a.m - 13:00 horas,-74.87249859999999,-10.9272221
283,477,PANGOA,120606,JUNIN,SATIPO,PANGOA,CALLE 7 DE JUNIO N° 641,8:00 a.m - 17:00 horas,09:00 a.m - 13:00 horas,-74.4891353,-11.4326782
284,478,POZUZO,190305,PASCO,OXAPAMPA,POZUZO,AV. LOS COLONOS N° 548 LA COLONIA,8:00 a.m - 17:00 horas,09:00 a.m - 13:00 horas,-75.55102729999999,-10.069963000000001
285,479,VILLA PERENE,120302,JUNIN,CHANCHAMAYO,PERENE,"JR. 22 DE OCTUBRE I MESETA PAMPA SILVA MZA. ""D"" LOTE N° 02 - VILLA PERENE",8:00 a.m - 17:00 horas,09:00 a.m - 13:00 horas,-75.2269456,-10.9463457
286,481,HUANUCO,100101,HUANUCO,HUANUCO,HUANUCO,JR. MAYRO N° 495,7:00 a.m - 17:00 horas,09:00 a.m - 13:00 horas,-76.2455641,-9.932767
287,483,AMBO,100201,HUANUCO,AMBO,AMBO,JR. 28 DE JULIO N° 149,8:00 a.m - 17:00 horas,09:00 a.m - 13:00 horas,-76.24816390000001,-9.959042
288,484,CENTRO COMERCIAL OPEN PLAZA HUANUCO,100101,HUANUCO,HUANUCO,HUANUCO,"JIRON DOS DE MAYO N° 125, 139, 153, 171 Y 175 - LOCAL B-02- A",8:00 a.m - 17:00 horas,09:00 a.m - 13:00 horas,-76.24772390000001,-10.683406699999999
289,485,LA UNION,100301,HUANUCO,DOS DE MAYO,LA UNION,JR. DOS DE MAYO N° 798,8:00 a.m - 17:00 horas,09:00 a.m - 13:00 horas,-76.8025376,-9.8292664
290,486,LLATA,100501,HUANUCO,HUAMALIES,LLATA,PROLONGACION 28 DE JULIO N° 168 MZ. T LOTE 20 - BARRIO SANTO DOMINGO,8:00 a.m - 17:00 horas,09:00 a.m - 13:00 horas,-69.9312117,18.4860575
291,487,MAZAMARI,120604,JUNIN,SATIPO,MAZAMARI,AV. SAN JUAN N° 385,8:00 a.m - 17:00 horas,09:00 a.m - 13:00 horas,-74.5310303,-11.3293517
292,488,PANAO,100801,HUANUCO,PACHITEA,PANAO,JR. ESPINAR N° 125,8:00 a.m - 17:00 horas,09:00 a.m - 13:00 horas,-71.412125,-14.7895845
293,489,AUCAYACU,100604,HUANUCO,LEONCIO PRADO,JOSE CRESPO Y CASTILLO,"JR. TINGO MARIA MZ. 12, LOTE 8-A",8:00 a.m - 17:00 horas,09:00 a.m - 13:00 horas,-76.00002020000001,-9.2976466
294,490,TINGO MARIA,100601,HUANUCO,LEONCIO PRADO,RUPA-RUPA,AV. ANTONIO RAYMONDI N° 189 Y 193,8:00 a.m - 17:00 horas,09:00 a.m - 13:00 horas,-76.0039197,-9.3000885
295,491,BAÑOS,101002,HUANUCO,LAURICOCHA,BAÑOS,JR. LIBERTAD S/N,8:00 a.m - 17:00 horas,09:00 a.m - 13:00 horas,-76.7350951,-10.075285000000001
296,492,ISCOZACIN - PALCAZU,190304,PASCO,OXAPAMPA,PALCAZU,"AV. JUAN FRANTZEN SECTOR 1, MANZANA S, LOTE 3",8:00 a.m - 17:00 horas,09:00 a.m - 13:00 horas,-75.2479061,-10.1899125
297,493,HUALLANCA,20508,ANCASH,BOLOGNESI,HUALLANCA,JR. AREQUIPA S/N - PLAZA DE ARMAS,8:00 a.m - 17:00 horas,09:00 a.m - 13:00 horas,-71.537451,-16.409047400000002
298,494,CHAVINILLO,101101,HUANUCO,YAROWILCA,CHAVINILLO,JR. SAN JUAN S/N,8:00 a.m - 17:00 horas,09:00 a.m - 13:00 horas,-76.5686422,-9.7881951
299,496,CONSTITUCION,190308,PASCO,OXAPAMPA,CONSTITUCION,AV. FERNANDO BELAUNDE TERRY S/N - IV ETAPA,8:00 a.m - 17:00 horas,09:00 a.m - 13:00 horas,-74.6868815,-9.8163981
300,497,UCHIZA,221005,SAN MARTIN,TOCACHE,UCHIZA,AV. ATAHUALPA N° 1242,8:00 a.m - 17:00 horas,09:00 a.m - 13:00 horas,-76.4616574,-8.459223300000001
301,498,TOCACHE,221001,SAN MARTIN,TOCACHE,TOCACHE,JR. FREDY ALIAGA N° 527,8:00 a.m - 17:00 horas,09:00 a.m - 13:00 horas,-76.5129557,-8.188309799999999
302,499,MUNICIPALIDAD DISTRITAL DE MONZON,100507,HUANUCO,HUAMALIES,MONZON,"JR. BESARES S/N MZA. ""I"" LOTE 7",8:00 a.m - 17:00 horas,09:00 a.m - 13:00 horas,-76.81647029999999,-9.5504091
303,500,JESUS,101001,HUANUCO,LAURICOCHA,JESUS,JR. CRISTOBAL COLON S/N,8:00 a.m - 17:00 horas,09:00 a.m - 13:00 horas,-76.581879,-10.0340399
304,501,CERRO DE PASCO,190113,PASCO,PASCO,YANACANCHA,JR. COLUMNA PASCO EDIFICIO ESTATAL N° 2 SAN JUAN,8:00 a.m - 17:00 horas,09:00 a.m - 13:00 horas,-76.25268100000001,-10.6898283
305,502,CARHUAMAYO,120502,JUNIN,JUNIN,CARHUAMAYO,ESQ. JR. MARAVILLAS Y JR. ARICA S/N,8:00 a.m - 17:00 horas,09:00 a.m - 13:00 horas,-76.05871529999999,-10.9230501
306,505,HUARIACA,190103,PASCO,PASCO,HUARIACA,JR. HEROES DE LA GUERRA DEL PACIFICO N° 147 Y CARRETERA CENTRAL S/N,8:00 a.m - 17:00 horas,09:00 a.m - 13:00 horas,-76.1885171,-10.444015199999999
307,506,HUAYLLAY,190104,PASCO,PASCO,HUAYLLAY,PLAZA PRINCIPAL S/N,8:00 a.m - 17:00 horas,09:00 a.m - 13:00 horas,-76.3651756,-10.9996208
308,507,JUNIN,120501,JUNIN,JUNIN,JUNIN,JR. ISIDORO SUAREZ N° 195,8:00 a.m - 17:00 horas,09:00 a.m - 13:00 horas,-75.9990275,-11.1617156
309,508,PAUCARTAMBO,190107,PASCO,PASCO,PAUCARTAMBO,PLAZA 28 DE JULIO S/N,8:00 a.m - 17:00 horas,09:00 a.m - 13:00 horas,-75.8135372,-10.7747616
310,511,YANAHUANCA,190201,PASCO,DANIEL ALCIDES CARRION,YANAHUANCA,JR. JORGE CHAVEZ S/N,8:00 a.m - 17:00 horas,09:00 a.m - 13:00 horas,-76.5155834,-10.4911471
311,512,PUCALLPA,250101,UCAYALI,CORONEL PORTILLO,CALLERIA,JR. TACNA N° 561,7:00 a.m - 17:00 horas,09:00 a.m - 13:00 horas,-74.5318359,-8.3842049
312,513,ATALAYA,250201,UCAYALI,ATALAYA,RAYMONDI,CALLE RIOJA N° 620 MZ. 41 LT. 08 JUNTA VECINAL SAN ANTONIO,8:00 a.m - 17:00 horas,09:00 a.m - 13:00 horas,-98.4936282,29.4241219
313,514,CONTAMANA,160601,LORETO,UCAYALI,CONTAMANA,CALLE BUENAVENTURA PADRE MÁRQUEZ MZ. 12 LOTE 24,8:00 a.m - 17:00 horas,09:00 a.m - 13:00 horas,-74.9208772,-7.899606599999999
314,516,AGUAYTIA,250301,UCAYALI,PADRE ABAD,PADRE ABAD,JJ.W SANTA INES MZ. C3 LT. 12 PUERTA N° 212 C.F.B. - AGUAYTIA,8:00 a.m - 17:00 horas,09:00 a.m - 13:00 horas,-122.34358780000001,37.562871799999996
315,517,PUERTO INCA,100901,HUANUCO,PUERTO INCA,PUERTO INCA,AV. SANCHEZ CERRO S/N,8:00 a.m - 17:00 horas,09:00 a.m - 13:00 horas,-74.96594920000001,-9.3788436
316,518,PURUS,250401,UCAYALI,PURUS,PURUS,JR. JULIO VILLACORTA S/N,8:00 a.m - 17:00 horas,09:00 a.m - 13:00 horas,-70.709413,-9.7715865
317,519,YARINACOCHA,250105,UCAYALI,CORONEL PORTILLO,YARINACOCHA,AV. YARINACOCHA N° 460,8:00 a.m - 17:00 horas,09:00 a.m - 13:00 horas,-74.5756428,-8.3560283
318,521,IQUITOS,160101,LORETO,MAYNAS,IQUITOS,CALLE LA CONDAMINE N° 488,7:00 a.m - 17:00 horas,09:00 a.m - 13:00 horas,-73.2432125,-3.745221
319,522,LAGUNAS,160206,LORETO,ALTO AMAZONAS,LAGUNAS,CALLE JUAN VASQUEZ N° 232,8:00 a.m - 17:00 horas,09:00 a.m - 13:00 horas,-75.6557206,-5.2368931
320,523,NAUTA,160301,LORETO,LORETO,NAUTA,"JIRON LIMA N° 508, NAUTA",8:00 a.m - 17:00 horas,09:00 a.m - 13:00 horas,-73.5760384,-4.508493700000001
321,524,REQUENA,160501,LORETO,REQUENA,REQUENA,CALLE SAN FRANCISCO N° 124,8:00 a.m - 17:00 horas,09:00 a.m - 13:00 horas,-122.4194155,37.7749295
322,525,YURIMAGUAS,160201,LORETO,ALTO AMAZONAS,YURIMAGUAS,CALLE COMERCIO N° 127 - 129,8:00 a.m - 17:00 horas,09:00 a.m - 13:00 horas,-76.1038377,-5.895590400000001
323,526,CABALLOCOCHA,160401,LORETO,MARISCAL RAMON CASTILLA,RAMON CASTILLA,CARLOS P. SAENZ N° 305,8:00 a.m - 17:00 horas,09:00 a.m - 13:00 horas,-70.51718699999999,-3.9091248999999997
324,527,EL ESTRECHO,160801,LORETO,PUTUMAYO,PUTUMAYO,CALLE AREQUIPA S/N,8:00 a.m - 17:00 horas,09:00 a.m - 13:00 horas,-71.537451,-16.409047400000002
325,529,PUNCHANA,160108,LORETO,MAYNAS,PUNCHANA,AV. 28 DE JULIO CON AMAZONAS,8:00 a.m - 17:00 horas,09:00 a.m - 13:00 horas,-73.2522063,-3.7274675999999998
326,530,SAN LORENZO,160701,LORETO,DATEM DEL MARAÑON,BARRANCA,CALLE TIGRE N° 249,8:00 a.m - 17:00 horas,09:00 a.m - 13:00 horas,-76.5550072,-4.831208
327,531,MOYOBAMBA,220101,SAN MARTIN,MOYOBAMBA,MOYOBAMBA,JIRON JOSE DE SAN MARTIN N° 696 - BARRIO DE BELEN,8:00 a.m - 17:00 horas,09:00 a.m - 13:00 horas,-76.9619551,-6.0317837999999995
328,532,RIOJA,220801,SAN MARTIN,RIOJA,RIOJA,JIRON DOS DE MAYO N° 710 - 712,8:00 a.m - 17:00 horas,09:00 a.m - 13:00 horas,-77.1691749,-6.0633042
329,533,NUEVA CAJAMARCA,220804,SAN MARTIN,RIOJA,NUEVA CAJAMARCA,JR. TACNA N° 718 - NUEVA CAJAMARCA II ETAPA,8:00 a.m - 17:00 horas,09:00 a.m - 13:00 horas,-77.3067861,-5.9433644
330,534,SORITOR,220105,SAN MARTIN,MOYOBAMBA,SORITOR,JR. JOSE OLAYA N° 1098 BARRIO DE TANGUMI,8:00 a.m - 17:00 horas,09:00 a.m - 13:00 horas,-77.1039981,-6.1481898
331,537,CAMPOVERDE,250102,UCAYALI,CORONEL PORTILLO,CAMPOVERDE,AV. 1° DE JUNIO N° 586,8:00 a.m - 17:00 horas,09:00 a.m - 13:00 horas,-74.8068454,-8.4761212
332,538,SOPLIN VARGAS,160803,LORETO,PUTUMAYO,TENIENTE MANUEL CLAVERO,"CALLE LAS FLORES S/N, PLAZA DE ARMAS - SOPLÍN VARGAS",8:00 a.m - 17:00 horas,09:00 a.m - 13:00 horas,-74.6759049,-0.3734302
333,541,TARAPOTO,220901,SAN MARTIN,SAN MARTIN,TARAPOTO,ESQ. JR. MAYNAS Y JR. RAYMONDI N° 198,8:00 a.m - 17:00 horas,09:00 a.m - 13:00 horas,-76.3792073,-6.4801712
334,542,BELLAVISTA,220201,SAN MARTIN,BELLAVISTA,BELLAVISTA,JR. BOLOGNESI N° 542,8:00 a.m - 17:00 horas,09:00 a.m - 13:00 horas,-76.5848737,-7.066721799999999
335,543,JUANJUI,220601,SAN MARTIN,MARISCAL CACERES,JUANJUI,"JIRON MARISCAL CASTILLA, ESQUINA CON JIRON MIGUEL GRAU S/N",8:00 a.m - 17:00 horas,09:00 a.m - 13:00 horas,-76.726927,-7.180369000000001
336,544,LAMAS,220501,SAN MARTIN,LAMAS,LAMAS,JR. DOMINGO CANAL GUERRA MZ. 22151,8:00 a.m - 17:00 horas,09:00 a.m - 13:00 horas,-76.51612159999999,-6.4222103
337,545,PICOTA,220701,SAN MARTIN,PICOTA,PICOTA,JR. MIGUEL GRAU N° 380,8:00 a.m - 17:00 horas,09:00 a.m - 13:00 horas,-76.3304245,-6.9199485
338,546,SAN JOSE DE SISA,220301,SAN MARTIN,EL DORADO,SAN JOSE DE SISA,JR. TACNA N° 471,8:00 a.m - 17:00 horas,09:00 a.m - 13:00 horas,-76.69035699999999,-6.6140422999999995
339,547,SAPOSOA,220401,SAN MARTIN,HUALLAGA,SAPOSOA,"AVENIDA LIMA N° 582 - 586 - 590, PRIMER CUARTEL",8:00 a.m - 17:00 horas,09:00 a.m - 13:00 horas,-76.7716195,-6.934836
340,548,TABALOSOS,220510,SAN MARTIN,LAMAS,TABALOSOS,"JR. AMAZONAS 1ERA. CUADRA MZ. 82, LT. 1",8:00 a.m - 17:00 horas,09:00 a.m - 13:00 horas,-76.632607,-6.3886231
341,550,SAN JUAN BAUTISTA,160113,LORETO,MAYNAS,SAN JUAN BAUTISTA,KM. 4.5 DE LA AV. JOSE ABELARDO QUIÑONES,8:00 a.m - 17:00 horas,09:00 a.m - 13:00 horas,-73.2884407,-3.7754024
342,552,SAN PABLO,160404,LORETO,MARISCAL RAMON CASTILLA,SAN PABLO,CALLE MARÍA BERNARD CON CALLE 19 DE OCTUBRE S/N,8:00 a.m - 17:00 horas,09:00 a.m - 13:00 horas,-71.1062302,-4.0229978
343,553,IRAZOLA,250302,UCAYALI,PADRE ABAD,IRAZOLA,CARRETERA FEDERICO BASADRE MZ. G LOTE 30 - SAN ALEJANDRO,8:00 a.m - 17:00 horas,09:00 a.m - 13:00 horas,-75.50495790000001,-9.0372504
344,556,PARDO MIGUEL,220805,SAN MARTIN,RIOJA,PARDO MIGUEL,AV. PARDO MIGUEL N° 698 - NARANJOS,8:00 a.m - 17:00 horas,09:00 a.m - 13:00 horas,-77.5003091,-5.740511
345,561,PISCO,110501,ICA,PISCO,PISCO,CALLE SAN FRANCISCO N° 155 - 161 - 167,7:00 a.m - 17:00 horas,09:00 a.m - 13:00 horas,-122.4194155,37.7749295
346,563,HUAYTARA,90601,HUANCAVELICA,HUAYTARA,HUAYTARA,CALLE MUNICIPAL S/N,8:00 a.m - 17:00 horas,09:00 a.m - 13:00 horas,-75.3532422,-13.6040212
347,571,CAÑETE,150501,LIMA,CAÑETE,SAN VICENTE DE CAÑETE,CALLE SANTA ROSA N° 702 Y 710 URB. LOS LIBERTADORES,7:00 a.m - 17:00 horas,09:00 a.m - 13:00 horas,-76.387436,-13.0760729
348,572,CHILCA,150505,LIMA,CAÑETE,CHILCA,AV. MARIANO IGNACIO PRADO N° 344,8:00 a.m - 17:00 horas,09:00 a.m - 13:00 horas,-76.7369333,-12.5166795
349,574,LUNAHUANA,150508,LIMA,CAÑETE,LUNAHUANA,JR. GRAU N° 343,8:00 a.m - 17:00 horas,09:00 a.m - 13:00 horas,-77.12775740000001,-12.061836999999999
350,575,MALA,150509,LIMA,CAÑETE,MALA,JR. REAL N° 343,8:00 a.m - 17:00 horas,09:00 a.m - 13:00 horas,-76.6348833,-12.656039999999999
351,576,YAUYOS,151001,LIMA,YAUYOS,YAUYOS,JR. JORGE CHAVEZ S/N,8:00 a.m - 17:00 horas,09:00 a.m - 13:00 horas,-75.9167047,-12.4600538
352,580,AMARILIS,100102,HUANUCO,HUANUCO,AMARILIS,JR. HUALLAGA N° 300 - PAUCARBAMBA,8:00 a.m - 17:00 horas,09:00 a.m - 13:00 horas,-76.2404834,-9.9400078
353,581,LA BANDA DE SHILCAYO,220909,SAN MARTIN,SAN MARTIN,LA BANDA DE SHILCAYO,JR.PERU CUADRA 2,8:00 a.m - 17:00 horas,09:00 a.m - 13:00 horas,-76.3580918,-6.4846905999999995
354,582,NUEVO PROGRESO,221002,SAN MARTIN,TOCACHE,NUEVO PROGRESO,JR. SARGENTO LORES N° 307,8:00 a.m - 17:00 horas,09:00 a.m - 13:00 horas,-76.6495675,-7.482367699999999
355,591,CHINCHA,110201,ICA,CHINCHA,CHINCHA ALTA,JIRON  MARISCAL  SUCRE N° 141 - CHINCHA ALTA,7:00 a.m - 17:00 horas,09:00 a.m - 13:00 horas,-76.149281,-13.414014000000002
356,601,ICA,110101,ICA,ICA,ICA,AV. GRAU N° 161,7:00 a.m - 17:00 horas,09:00 a.m - 13:00 horas,-75.7282203,-14.0631152
357,603,PALPA,110401,ICA,PALPA,PALPA,CALLE PORTAL DE ESCRIBANOS N° 175,8:00 a.m - 17:00 horas,09:00 a.m - 13:00 horas,-75.18080350000001,-14.5340655
358,604,PARCONA,110106,ICA,ICA,PARCONA,AV. PACHACUTEC YUPANQUI N° 800,8:00 a.m - 17:00 horas,09:00 a.m - 13:00 horas,-75.7060911,-14.0478427
359,611,NASCA,110301,ICA,NASCA,NASCA,CALLE LIMA N° 465 - 467,7:00 a.m - 17:00 horas,09:00 a.m - 13:00 horas,-74.9380736,-14.828717600000001
360,612,ACARI,40302,AREQUIPA,CARAVELI,ACARI,AV. SEBASTIAN BARRANCA N° 1110,8:00 a.m - 17:00 horas,09:00 a.m - 13:00 horas,-74.6171243,-15.434645199999999
361,613,CARAVELI,40301,AREQUIPA,CARAVELI,CARAVELI,"CALLE AYACUCHO MZ. Z, LOTE 8 ZONA B, CENTRO POBLADO CARAVELÍ TRADICIONAL",8:00 a.m - 17:00 horas,09:00 a.m - 13:00 horas,-74.22356409999999,-13.1638737
362,614,CORACORA,50701,AYACUCHO,PARINACOCHAS,CORACORA,ESQUINA DEL JR. MIGUEL GRAU Y 2 DE MAYO,8:00 a.m - 17:00 horas,09:00 a.m - 13:00 horas,-73.7799954,-15.017173499999998
363,615,CHALA,40307,AREQUIPA,CARAVELI,CHALA,CENTRO POBLADO PUEBLO TRADICIONAL DE CHALA MZ. 22 LOTE 19-A,8:00 a.m - 17:00 horas,09:00 a.m - 13:00 horas,-74.2560806,-15.8468141
364,617,LARAMATE,50608,AYACUCHO,LUCANAS,LARAMATE,CALLE ICA S/N - CENTRO CIVICO,8:00 a.m - 17:00 horas,09:00 a.m - 13:00 horas,-74.85919190000001,-14.25575
365,618,SAN JUAN DE MARCONA,110304,ICA,NASCA,MARCONA,AV. LOS INCAS S/N,8:00 a.m - 17:00 horas,09:00 a.m - 13:00 horas,-75.1659027,-15.363740900000002
366,619,PUQUIO,50601,AYACUCHO,LUCANAS,PUQUIO,JR. PACHACUTEC N° 108,8:00 a.m - 17:00 horas,09:00 a.m - 13:00 horas,-74.12244670000001,-14.6941574
367,620,PUYUSCA - INCUYO,50706,AYACUCHO,PARINACOCHAS,PUYUSCA,CENTRO POBLADO INCUYO MZ. D1 LTE. 10,8:00 a.m - 17:00 horas,09:00 a.m - 13:00 horas,-73.56953490000001,-15.246638199999998
368,621,YAUCA,40313,AREQUIPA,CARAVELI,YAUCA,"PUEBLO TRADICIONAL DE YAUCA, MZ. 16 LOTE 20A (ENTRE LAS ESQUINAS DE LAS CALLES SIMON BOLIVAR Y GENERAL SEGURA)",8:00 a.m - 17:00 horas,09:00 a.m - 13:00 horas,-74.5277886,-15.6618475
369,624,ATICO,40303,AREQUIPA,CARAVELI,ATICO,AV. CARAVELI N° 402 - PLAZA DE ARMAS,8:00 a.m - 17:00 horas,09:00 a.m - 13:00 horas,-73.6132016,-16.227773199999998
370,625,CABANA SUR,50603,AYACUCHO,LUCANAS,CABANA,JR. HUAMAN POMA DE AYALA N° 400,8:00 a.m - 17:00 horas,09:00 a.m - 13:00 horas,-73.9668408,-14.2906979
371,627,HUANCA SANCOS,50301,AYACUCHO,HUANCA SANCOS,SANCOS,JR. AYACUCHO N° 314,8:00 a.m - 17:00 horas,09:00 a.m - 13:00 horas,-74.5463282,-14.015059599999999
372,631,PIURA,200101,PIURA,PIURA,PIURA,CALLE TACNA N° 697,7:00 a.m - 17:00 horas,09:00 a.m - 13:00 horas,-80.6271027,-5.1980737
373,632,CATACAOS,200105,PIURA,PIURA,CATACAOS,JR. ICA N° 612,8:00 a.m - 17:00 horas,09:00 a.m - 13:00 horas,-80.67473199999999,-5.265981
374,633,CHALACO,200403,PIURA,MORROPON,CHALACO,CALLE SIMON BOLIVAR N° 204,8:00 a.m - 17:00 horas,09:00 a.m - 13:00 horas,-79.7960523,-5.0725485
375,634,CHULUCANAS,200401,PIURA,MORROPON,CHULUCANAS,JR. APURIMAC N° 668,7:00 a.m - 17:00 horas,09:00 a.m - 13:00 horas,-80.1609849,-5.0960479
376,635,FRIAS,200202,PIURA,AYABACA,FRIAS,CALLE PIURA N° 287,8:00 a.m - 17:00 horas,09:00 a.m - 13:00 horas,-79.94776309999999,-4.9307843
377,636,LA UNION,200110,PIURA,PIURA,LA UNION,CALLE CHEPA SANTOS N° 703,8:00 a.m - 17:00 horas,09:00 a.m - 13:00 horas,-80.7420937,-5.4017032
378,637,MORROPON,200405,PIURA,MORROPON,MORROPON,CALLE CAJAMARCA N° 430,8:00 a.m - 17:00 horas,09:00 a.m - 13:00 horas,-78.51278549999999,-7.1617465
379,638,PAITA,200501,PIURA,PAITA,PAITA,JR. SIMON BOLIVAR N° 129 - CERCADO DE PAITA,8:00 a.m - 17:00 horas,09:00 a.m - 13:00 horas,-81.1142218,-5.085045099999999
380,639,PUEBLO NUEVO DE COLAN,200504,PIURA,PAITA,COLAN,"CALLE BOLÍVAR, MANZANA 96 - LOTE 9, COLÁN",8:00 a.m - 17:00 horas,09:00 a.m - 13:00 horas,-81.0616662,-5.011593599999999
381,640,SANTO DOMINGO,200409,PIURA,MORROPON,SANTO DOMINGO,CALLE COMERCIO N° 115,8:00 a.m - 17:00 horas,09:00 a.m - 13:00 horas,-79.8766935,-5.0264346
382,641,SECHURA,200801,PIURA,SECHURA,SECHURA,CALLE SIMON BOLIVAR N° 752,8:00 a.m - 17:00 horas,09:00 a.m - 13:00 horas,-80.8219341,-5.559716099999999
383,642,PACAIPAMPA,200206,PIURA,AYABACA,PACAIPAMPA,CALLE CORREO / UNION S/N,8:00 a.m - 17:00 horas,09:00 a.m - 13:00 horas,-79.668577,-4.994978
384,644,SALITRAL,200406,PIURA,MORROPON,SALITRAL,CALLE LIBERTAD MZ. 21 LOTE 7,8:00 a.m - 17:00 horas,09:00 a.m - 13:00 horas,-80.1657463,-5.098088400000001
385,646,CASTILLA,200104,PIURA,PIURA,CASTILLA,AV. CAYETANO HEREDIA 402 MZ. D - LOTE 11,8:00 a.m - 17:00 horas,09:00 a.m - 13:00 horas,-80.6203417,-5.1945597
386,648,LA MATANZA,200404,PIURA,MORROPON,LA MATANZA,AV. 27 DE NOVIEMBRE S/N,8:00 a.m - 17:00 horas,09:00 a.m - 13:00 horas,-80.08931729999999,-5.2120112
387,651,AYABACA,200201,PIURA,AYABACA,AYABACA,CALLE CACERES N° 443,8:00 a.m - 17:00 horas,09:00 a.m - 13:00 horas,-79.7148567,-4.6393989
388,653,MONTERO,200205,PIURA,AYABACA,MONTERO,"JR. ERNESTO  MERINO N° 330, MZ. V, LOTE 5",8:00 a.m - 17:00 horas,09:00 a.m - 13:00 horas,-79.8247719,-4.630172099999999
389,655,PAIMAS,200207,PIURA,AYABACA,PAIMAS,CALLE JOSE CARLOS MARIATEGUI S/N,8:00 a.m - 17:00 horas,09:00 a.m - 13:00 horas,-79.9864071,-4.635671599999999
390,656,LA HUACA,200505,PIURA,PAITA,LA HUACA,ESQUINA DE LA CALLE FERROCARRIL CON AVENIDA LEONCIO PRADO MANZANA N° 69 LOTE 1-B,8:00 a.m - 17:00 horas,09:00 a.m - 13:00 horas,-81.0962172,-5.0938488
391,661,HUANCABAMBA,200301,PIURA,HUANCABAMBA,HUANCABAMBA,CALLE LIMA N° 122,8:00 a.m - 17:00 horas,09:00 a.m - 13:00 horas,-79.4512221,-5.2392959999999995
392,662,CANCHAQUE,200302,PIURA,HUANCABAMBA,CANCHAQUE,JR. BOLOGNESI S/N,8:00 a.m - 17:00 horas,09:00 a.m - 13:00 horas,-79.60560190000001,-5.3758214
393,663,HUARMACA,200304,PIURA,HUANCABAMBA,HUARMACA,JR. MIGUEL GRAU S/N - ESQUINA CON EL JR. FERNANDEZ SN CENTRO CIVICO,8:00 a.m - 17:00 horas,09:00 a.m - 13:00 horas,-79.6052884,-5.6780132000000005
394,671,SULLANA,200601,PIURA,SULLANA,SULLANA,CALLE SAN MARTIN N° 500,8:00 a.m - 17:00 horas,09:00 a.m - 13:00 horas,-80.6851015,-4.8895117
395,672,CERRO MOCHO,200603,PIURA,SULLANA,IGNACIO ESCUDERO,AV. PANAMERICANA S/N,8:00 a.m - 17:00 horas,09:00 a.m - 13:00 horas,-80.8828781,-4.846401
396,673,LAS LOMAS,200111,PIURA,PIURA,LAS LOMAS,JR. ALFONSO UGARTE S/N - LAS LOMAS,8:00 a.m - 17:00 horas,09:00 a.m - 13:00 horas,-80.24454990000001,-4.6568226
397,674,QUERECOTILLO,200607,PIURA,SULLANA,QUERECOTILLO,CALLE JOSE GALVEZ N° 209,8:00 a.m - 17:00 horas,09:00 a.m - 13:00 horas,-80.68643229999999,-4.903638
398,675,SUYO,200210,PIURA,AYABACA,SUYO,MZ. G LOTE I DEL JR. MANUEL VEGAS CASTILLO,8:00 a.m - 17:00 horas,09:00 a.m - 13:00 horas,-79.9467105,-4.4515781
399,676,TAMBO GRANDE,200114,PIURA,PIURA,TAMBO GRANDE,JR.PIURA N° 397 Y JR. CASTILLA,8:00 a.m - 17:00 horas,09:00 a.m - 13:00 horas,-80.3425452,-4.9350217
400,681,TALARA,200701,PIURA,TALARA,PARIÑAS,AV. EL EJÉRCITO N° 138 - 148 BARRIO PARTICULAR,8:00 a.m - 17:00 horas,09:00 a.m - 13:00 horas,-81.26890259999999,-4.5751282
401,682,EL ALTO,200702,PIURA,TALARA,EL ALTO,AV. BOLOGNESI A - 04,8:00 a.m - 17:00 horas,09:00 a.m - 13:00 horas,-81.21151409999999,-4.2667093000000005
402,683,LOS ORGANOS,200705,PIURA,TALARA,LOS ORGANOS,"AV. TUPAC AMARU N° 769, BARRIO EMPLEADOS",8:00 a.m - 17:00 horas,09:00 a.m - 13:00 horas,-81.1237446,-4.176485899999999
403,684,MANCORA,200706,PIURA,TALARA,MANCORA,AV. PIURA N° 641,8:00 a.m - 17:00 horas,09:00 a.m - 13:00 horas,-81.0478834,-4.1050917
404,685,NEGRITOS,200703,PIURA,TALARA,LA BREA,AV. GRAU S/N,8:00 a.m - 17:00 horas,09:00 a.m - 13:00 horas,-81.2723349,-4.579180200000001
405,691,TUMBES,240101,TUMBES,TUMBES,TUMBES,ESQUINA BOLIVAR Y GRAU N° 201,8:00 a.m - 17:00 horas,09:00 a.m - 13:00 horas,-80.45970240000001,-3.5698972
406,693,ZORRITOS,240201,TUMBES,CONTRALMIRANTE VILLAR,ZORRITOS,AV. FAUSTINO PIAGGIO N° 194,8:00 a.m - 17:00 horas,09:00 a.m - 13:00 horas,-80.67985209999999,-3.6817005
407,694,AGUAS VERDES,240302,TUMBES,ZARUMILLA,AGUAS VERDES,AV. REPUBLICA DEL PERU N° 313,8:00 a.m - 17:00 horas,09:00 a.m - 13:00 horas,-80.245565,-3.4817248
408,696,ZARUMILLA,240301,TUMBES,ZARUMILLA,ZARUMILLA,CALLE ARICA N° 323 PLAZA DE ARMAS DE ZARUMILLA,8:00 a.m - 17:00 horas,09:00 a.m - 13:00 horas,-80.2711588,-3.4949817000000003
409,697,CEBAF - TUMBES,240302,TUMBES,ZARUMILLA,AGUAS VERDES,"BLOQUE M, KM. 1293, EJE VIAL N° 01 - CASERIO POCITOS",8:00 a.m - 17:00 horas,09:00 a.m - 13:00 horas,-80.24885959999999,-3.4947487999999995
410,701,PUNO,210101,PUNO,PUNO,PUNO,JR. MIGUEL GRAU SEMINARIO N° 269 - 279 - 289 - 293 - 297,7:00 a.m - 17:00 horas,09:00 a.m - 13:00 horas,-70.02830759999999,-15.839804
411,702,DESAGUADERO,210402,PUNO,CHUCUITO,DESAGUADERO,AV. 28 DE JULIO N° 587 - 589,8:00 a.m - 17:00 horas,-,-69.0412643,-16.561510199999997
412,703,ILAVE,210501,PUNO,EL COLLAO,ILAVE,JR. INDEPENDENCIA N° 206,8:00 a.m - 17:00 horas,09:00 a.m - 13:00 horas,-69.6382498,-16.087145800000002
413,704,JULI,210401,PUNO,CHUCUITO,JULI,JR. SAN JUAN N° 140,8:00 a.m - 17:00 horas,09:00 a.m - 13:00 horas,-69.45759790000001,-16.2142869
414,705,POMATA,210406,PUNO,CHUCUITO,POMATA,JR. LIMA S/N - PALACIO MUNICIPAL EN LA PLAZA DE ARMAS DE POMATA,8:00 a.m - 17:00 horas,09:00 a.m - 13:00 horas,-77.0305458,-12.0460038
415,706,YUNGUYO,211301,PUNO,YUNGUYO,YUNGUYO,JIRON BOLOGNESI N° 103,8:00 a.m - 17:00 horas,09:00 a.m - 13:00 horas,-69.0921516,-16.2438984
416,709,ACORA,210102,PUNO,PUNO,ACORA,JR. LIMA N° 439,8:00 a.m - 17:00 horas,09:00 a.m - 13:00 horas,-69.7977701,-15.973741
417,711,AYAVIRI,210801,PUNO,MELGAR,AYAVIRI,JR. ARICA N° 353 - 355 - 357,8:00 a.m - 17:00 horas,09:00 a.m - 13:00 horas,-70.5892709,-14.882628200000001
418,712,ASILLO,210204,PUNO,AZANGARO,ASILLO,PLAZA DE ARMAS S/N,8:00 a.m - 17:00 horas,09:00 a.m - 13:00 horas,-70.35347800000001,-14.786157199999998
419,713,AZANGARO,210201,PUNO,AZANGARO,AZANGARO,JR. AZÁNGARO N° 475,8:00 a.m - 17:00 horas,09:00 a.m - 13:00 horas,-70.12018959999999,-15.4911519
420,715,MACUSANI,210301,PUNO,CARABAYA,MACUSANI,JR. RAYMONDI N° 120 - CERCADO MACUSANI,8:00 a.m - 17:00 horas,09:00 a.m - 13:00 horas,-70.42533890000001,-14.072176
421,716,NUÑOA,210806,PUNO,MELGAR,NUÑOA,JR. ALFONSO UGARTE S/N,8:00 a.m - 17:00 horas,09:00 a.m - 13:00 horas,-70.6365505,-14.4760253
422,717,JOSE DOMINGO CHOQUEHUANCA,210207,PUNO,AZANGARO,JOSE DOMINGO CHOQUEHUANCA,JR. PUCARA S/N (PLAZA DE ARMAS),8:00 a.m - 17:00 horas,09:00 a.m - 13:00 horas,-70.32416540000001,-15.0254421
423,720,CRUCERO,210306,PUNO,CARABAYA,CRUCERO,PLAZA LA LIBERTAD N° 100,8:00 a.m - 17:00 horas,09:00 a.m - 13:00 horas,-70.0320969,-14.345379999999999
424,721,JULIACA,211101,PUNO,SAN ROMAN,JULIACA,JR. 9 DE DICIEMBRE N° 270 - 274 - CERCADO DE ESTA CIUDAD JULIACA,7:00 a.m - 17:00 horas,09:00 a.m - 13:00 horas,-70.129653,-15.499687900000001
425,722,CABANILLAS,211103,PUNO,SAN ROMAN,CABANILLAS,JR. MUNICIPALIDAD N° 119 CABANILLAS,8:00 a.m - 17:00 horas,09:00 a.m - 13:00 horas,-70.34946049999999,-15.641215599999999
426,723,HUANCANE,210601,PUNO,HUANCANE,HUANCANE,JR. PUNO N° 501 CON JR. SANTA BARBARA S/N DEL BARRIO CENTRO,8:00 a.m - 17:00 horas,09:00 a.m - 13:00 horas,-70.02188050000001,-15.8402218
427,724,LAMPA,210701,PUNO,LAMPA,LAMPA,ESQ. DEL JR. JOSE MIGUEL RIOS N° 284 Y JR. E. AGUIRRE S/N,8:00 a.m - 17:00 horas,09:00 a.m - 13:00 horas,-70.3667592,-15.3636353
428,725,PUTINA,211001,PUNO,SAN ANTONIO DE PUTINA,PUTINA,AV. LIBERTAD BARRIO LIBERTAD,8:00 a.m - 17:00 horas,09:00 a.m - 13:00 horas,-69.86920759999998,-14.917117999999999
429,726,SANDIA,211201,PUNO,SANDIA,SANDIA,SANDIA 21366,8:00 a.m - 17:00 horas,09:00 a.m - 13:00 horas,-69.468026,-14.322568799999999
430,727,MOHO,210901,PUNO,MOHO,MOHO,CALLE GRAU,8:00 a.m - 17:00 horas,09:00 a.m - 13:00 horas,-69.5007996,-15.357520800000001
431,728,SAN JUAN DEL ORO,211207,PUNO,SANDIA,SAN JUAN DEL ORO,JR. SAN JUAN S/N,8:00 a.m - 17:00 horas,09:00 a.m - 13:00 horas,-69.154315,-14.2206209
432,741,TRUJILLO,130101,LA LIBERTAD,TRUJILLO,TRUJILLO,JR.  DIEGO DE ALMAGRO N° 297,7:00 a.m - 17:00 horas,09:00 a.m - 13:00 horas,-79.0305547,-8.110736099999999
433,742,ASCOPE,130201,LA LIBERTAD,ASCOPE,ASCOPE,"CALLE MANCO CAPAC N° 100  MANZANA 29, LOTE 01",8:00 a.m - 17:00 horas,09:00 a.m - 13:00 horas,-79.1071344,-7.7146867
434,743,CARTAVIO,130207,LA LIBERTAD,ASCOPE,SANTIAGO DE CAO,CALLE REAL N° 166,8:00 a.m - 17:00 horas,09:00 a.m - 13:00 horas,-79.2204273,-7.8877462
435,744,CASA GRANDE,130208,LA LIBERTAD,ASCOPE,CASA GRANDE,"AV. CENTRAL LOTE 1, SUB - LOTE 1-2 MZ. ""J"" URB. 03 DE OCTUBRE SECTOR 08",8:00 a.m - 17:00 horas,09:00 a.m - 13:00 horas,-76.9570002,-12.038441
436,745,CASCAS,131101,LA LIBERTAD,GRAN CHIMU,CASCAS,JR. SAN MARTIN N° 438,8:00 a.m - 17:00 horas,09:00 a.m - 13:00 horas,-78.8184432,-7.4818932
437,746,CONTUMAZA,60501,CAJAMARCA,CONTUMAZA,CONTUMAZA,JR. DAVID LEON N° 614,8:00 a.m - 17:00 horas,09:00 a.m - 13:00 horas,-78.80402459999999,-7.365901299999999
438,747,CHICAMA,130202,LA LIBERTAD,ASCOPE,CHICAMA,AV. PROGRESO N° 500,8:00 a.m - 17:00 horas,09:00 a.m - 13:00 horas,-79.14673520000001,-7.845382000000001
439,748,CHOCOPE,130203,LA LIBERTAD,ASCOPE,CHOCOPE,CALLE MARISCAL CACERES N° 350 Y 352,8:00 a.m - 17:00 horas,09:00 a.m - 13:00 horas,-79.22168740000001,-7.791864100000001
440,749,LAREDO,130106,LA LIBERTAD,TRUJILLO,LAREDO,"SECTOR AGRUPACION DE FAMILIAS CENTRO CIVICO MZA. ""F"", LOTE N° 1",8:00 a.m - 17:00 horas,09:00 a.m - 13:00 horas,-78.9588743,-8.085581699999999
441,750,USQUIL,130614,LA LIBERTAD,OTUZCO,USQUIL,JR. PROGRESO N° 225,8:00 a.m - 17:00 horas,09:00 a.m - 13:00 horas,-78.4162793,-7.8154430999999995
442,751,OTUZCO,130601,LA LIBERTAD,OTUZCO,OTUZCO,ESQUINA DEMECIO ORBEGOZO  Y  CALLE TRUJILLO S/N,8:00 a.m - 17:00 horas,09:00 a.m - 13:00 horas,-78.56591359999999,-7.905856900000001
443,752,PAIJAN,130205,LA LIBERTAD,ASCOPE,PAIJAN,CALLE O'DONOVAN N°500 MZ. 4 LOTE 27,8:00 a.m - 17:00 horas,09:00 a.m - 13:00 horas,-79.05658609999999,-8.1409681
444,753,PUERTO DE MALABRIGO,130206,LA LIBERTAD,ASCOPE,RAZURI,CALLE TARAPACA N° 213 DEL C.P. PTO. DE MALABRIGO,8:00 a.m - 17:00 horas,09:00 a.m - 13:00 horas,-79.439262,-7.7020276
445,754,SALAVERRY,130109,LA LIBERTAD,TRUJILLO,SALAVERRY,CALLE LIBERTAD N° 202,8:00 a.m - 17:00 horas,09:00 a.m - 13:00 horas,-78.97636120000001,-8.2237178
446,756,VIRU,131201,LA LIBERTAD,VIRU,VIRU,ESQUINA AVENIDA LIBERTAD - CALLE SUCRE,8:00 a.m - 17:00 horas,09:00 a.m - 13:00 horas,-63.140756499999995,-17.6431198
447,757,PERIFERICA TRUJILLO,130101,LA LIBERTAD,TRUJILLO,TRUJILLO,AV. MANUEL VERA ENRIQUEZ N° 476 - 480,8:00 a.m - 17:00 horas,09:00 a.m - 13:00 horas,-79.0317674,-8.1035615
448,758,JULCAN,130501,LA LIBERTAD,JULCAN,JULCAN,AV. 28 DE JULIO N° 203,8:00 a.m - 17:00 horas,09:00 a.m - 13:00 horas,-78.4883155,-8.0421656
449,761,CAJAMARCA,60101,CAJAMARCA,CAJAMARCA,CAJAMARCA,JR. PISAGUA N° 552,7:00 a.m - 17:00 horas,09:00 a.m - 13:00 horas,-78.52085809999998,-7.155949700000001
450,762,BOLIVAR,130301,LA LIBERTAD,BOLIVAR,BOLIVAR,"CALLE 19 #11-29, BOLÍVAR 13420",8:00 a.m - 17:00 horas,09:00 a.m - 13:00 horas,-74.08072270000001,4.611922799999999
451,765,SAN MARCOS,61001,CAJAMARCA,SAN MARCOS,PEDRO GALVEZ,JR. MIGUEL GRAU N° 445,8:00 a.m - 17:00 horas,09:00 a.m - 13:00 horas,-78.1792434,-7.3457075
452,766,SAN MIGUEL,61101,CAJAMARCA,SAN MIGUEL,SAN MIGUEL,JR. PEDRO NOVOA N° 549,8:00 a.m - 17:00 horas,09:00 a.m - 13:00 horas,-78.85140140000001,-6.9992037
453,767,SAN PABLO,61201,CAJAMARCA,SAN PABLO,SAN PABLO,JR. LIMA N° 318,8:00 a.m - 17:00 horas,09:00 a.m - 13:00 horas,-122.3455263,37.96214570000001
454,771,VICTOR LARCO,130111,LA LIBERTAD,TRUJILLO,VICTOR LARCO HERRERA,"AV. JUAN PABLO II N° 1201, MZ. K5 LOTE N° 09, URB. LOS ROSALES DE SAN ANDRES, SUB LOTE A Y SUB LOTE B",8:00 a.m - 17:00 horas,09:00 a.m - 13:00 horas,-79.0431193,-8.1230312
455,772,TONGOD,61112,CAJAMARCA,SAN MIGUEL,TONGOD,JR. MIGUEL GRAU S/N - PLAZA DE ARMAS,8:00 a.m - 17:00 horas,09:00 a.m - 13:00 horas,117.088771,5.2783414
456,774,BAÑOS DEL INCA,60108,CAJAMARCA,CAJAMARCA,LOS BAÑOS DEL INCA,JR. ATAHUALPA S/N - PLAZA DE ARMAS,8:00 a.m - 17:00 horas,09:00 a.m - 13:00 horas,-78.46422109999999,-7.162969800000001
457,777,SOROCHUCO,60309,CAJAMARCA,CELENDIN,SOROCHUCO,JR. TARAPACA N° 372,8:00 a.m - 17:00 horas,09:00 a.m - 13:00 horas,-69.28775350000001,-20.2028799
458,781,CHIMBOTE,21801,ANCASH,SANTA,CHIMBOTE,JOSE GALVEZ N° 200,7:00 a.m - 17:00 horas,09:00 a.m - 13:00 horas,-78.5889032,-9.0725381
459,782,CABANA,21501,ANCASH,PALLASCA,CABANA,JR. SAN JERONIMO N° 202,8:00 a.m - 17:00 horas,09:00 a.m - 13:00 horas,-78.006695,-8.3944043
460,783,CASMA,20801,ANCASH,CASMA,CASMA,"AV. NEPEÑA MZ. A, LOTE 07, P.U. CENTRO COMERCIAL DE CASMA",8:00 a.m - 17:00 horas,09:00 a.m - 13:00 horas,-78.3600448,-9.1738986
461,784,HUARMEY,21101,ANCASH,HUARMEY,HUARMEY,AV.CABO ALBERTO REYES N° 127,8:00 a.m - 17:00 horas,09:00 a.m - 13:00 horas,-78.152923,-10.068971000000001
462,785,NUEVO CHIMBOTE,21809,ANCASH,SANTA,NUEVO CHIMBOTE,"MZ. A, LOTE 2, PROLONGACION AV. ARGENTINA",8:00 a.m - 17:00 horas,09:00 a.m - 13:00 horas,-78.5287552,-9.122195199999998
463,786,MORO,21805,ANCASH,SANTA,MORO,INDEPENDENCIA N° 279,8:00 a.m - 17:00 horas,09:00 a.m - 13:00 horas,-96.35267259999999,41.3299256
464,788,SAN JACINTO,21806,ANCASH,SANTA,NEPEÑA,JR. SANTA S/N,8:00 a.m - 17:00 horas,09:00 a.m - 13:00 horas,-78.3600448,-9.1738986
465,789,SANTA,21808,ANCASH,SANTA,SANTA,JIRON RIO SANTA N° 137,8:00 a.m - 17:00 horas,09:00 a.m - 13:00 horas,-78.6131576,-8.9887046
466,791,CONCHUCOS,21503,ANCASH,PALLASCA,CONCHUCOS,PLZA DE ARMAS S/N,8:00 a.m - 17:00 horas,09:00 a.m - 13:00 horas,-77.8539305,-8.267132700000001
467,792,PALLASCA,21508,ANCASH,PALLASCA,PALLASCA,PLAZA DE ARMAS S/N,8:00 a.m - 17:00 horas,09:00 a.m - 13:00 horas,-78.016667,-8.25
468,795,PAMPAS,21509,ANCASH,PALLASCA,PAMPAS,PLAZA DE ARMAS MZ. W LOTE 7,8:00 a.m - 17:00 horas,09:00 a.m - 13:00 horas,-78.016667,-8.25
469,802,CAJABAMBA,60201,CAJAMARCA,CAJABAMBA,CAJABAMBA,JR. LEONCIO PRADO N° 105,8:00 a.m - 17:00 horas,09:00 a.m - 13:00 horas,-78.0457613,-7.6232902000000005
470,803,HUACRACHUCO,100701,HUANUCO,MARAÑON,HUACRACHUCO,AV. 28 DE JULIO S/N - CENTRO CIVICO,8:00 a.m - 17:00 horas,09:00 a.m - 13:00 horas,-77.1504626,-8.604282099999999
471,805,SANTIAGO DE CHUCO,131001,LA LIBERTAD,SANTIAGO DE CHUCO,SANTIAGO DE CHUCO,JR. TOMAS GANOZA N° 740,8:00 a.m - 17:00 horas,09:00 a.m - 13:00 horas,-78.1730584,-8.14558
472,807,TAYABAMBA,130801,LA LIBERTAD,PATAZ,TAYABAMBA,AV. ALFONSO UGARTE S/N,8:00 a.m - 17:00 horas,09:00 a.m - 13:00 horas,-77.2991888,-8.2733947
473,809,PARCOY,130808,LA LIBERTAD,PATAZ,PARCOY,AV. SAN MARTIN S/N,8:00 a.m - 17:00 horas,09:00 a.m - 13:00 horas,-77.426338,-7.969514
474,811,PACASMAYO,130704,LA LIBERTAD,PACASMAYO,PACASMAYO,ESQ. AV. 28 DE JULIO Y LIMA,8:00 a.m - 17:00 horas,09:00 a.m - 13:00 horas,-79.5694047,-7.39907
475,812,CHEPEN,130401,LA LIBERTAD,CHEPEN,CHEPEN,AV. ATAHUALPA S/N,8:00 a.m - 17:00 horas,09:00 a.m - 13:00 horas,-79.43034420000001,-7.2281985
476,814,SAN JOSE,130705,LA LIBERTAD,PACASMAYO,SAN JOSE,CALLE LIMA N° 901 - PLAZA DE ARMAS,8:00 a.m - 17:00 horas,09:00 a.m - 13:00 horas,-79.45562170000001,-7.349157300000001
477,815,SAN PEDRO DE LLOC,130701,LA LIBERTAD,PACASMAYO,SAN PEDRO DE LLOC,CALLE 2 DE MAYO N° 260,8:00 a.m - 17:00 horas,09:00 a.m - 13:00 horas,-79.50399209999999,-7.432669099999999
478,816,TEMBLADERA,60508,CAJAMARCA,CONTUMAZA,YONAN,JR. CAJAMARCA N° 825,8:00 a.m - 17:00 horas,09:00 a.m - 13:00 horas,-79.12727509999999,-7.254891000000001
479,817,CHILETE,60502,CAJAMARCA,CONTUMAZA,CHILETE,JR. PACASMAYO N° 129 A,8:00 a.m - 17:00 horas,09:00 a.m - 13:00 horas,-79.565078,-7.404005099999999
480,818,CIUDAD DE DIOS,130702,LA LIBERTAD,PACASMAYO,GUADALUPE,"AV. REPUBLICA DE ALEMANIA N° 385, CENTRO POBLADO CIUDAD DE DIOS",8:00 a.m - 17:00 horas,09:00 a.m - 13:00 horas,-79.4802317,-7.3051702
481,9004,CORTE SUPERIOR DE JUSTICIA LIMA SUR,150143,LIMA,LIMA,VILLA MARIA DEL TRIUNFO,JR. FRANCISCO BOLOGNESI N° 103 P.J. JOSE CARLOS MARIATEGUI ETAPA SEGUNDA SECTOR SANTA ROSA Y BELEN - MZ. A5 LOTE 1,8:00 a.m - 17:00 horas,09:00 a.m - 13:00 horas,-122.7140548,38.440428999999995
482,9006,SERPOST MIRAFLORES,150122,LIMA,LIMA,MIRAFLORES,AV. PETIT THOUARS N° 5201,8:00 a.m - 17:00 horas,09:00 a.m - 13:00 horas,-77.02847170000001,-12.114603500000001
483,9019,CORTE SUPERIOR DE JUSTICIA CONO NORTE,150112,LIMA,LIMA,INDEPENDENCIA,AV. CARLOS ALBERTO IZAGUIRRE N° 176,8:00 a.m - 17:00 horas,-,-77.05966740000001,-11.9893128
484,9021,MUNICIPALIDAD DE HUAYCAN,150103,LIMA,LIMA,ATE,"AV. 15 DE JULIO, LOTE 02, PROGRAMA ESPECIAL HUAYCAN ZONA A",8:00 a.m - 17:00 horas,09:00 a.m - 13:00 horas,-76.82356120000001,-12.011426199999999
485,9023,LAS ALONDRAS,150137,LIMA,LIMA,SANTA ANITA,JR. LAS ALONDRAS N° 389 URB. SANTA ANITA,8:00 a.m - 17:00 horas,09:00 a.m - 13:00 horas,-76.9614266,-12.053189999999999
486,9027,MENDIOLA,150117,LIMA,LIMA,LOS OLIVOS,AV. ALFREDO MENDIOLA N° 3705,8:00 a.m - 17:00 horas,09:00 a.m - 13:00 horas,-77.06757879999999,-11.9769762
487,9029,BRASIL,150120,LIMA,LIMA,MAGDALENA DEL MAR,AV. BRASIL N° 3698,8:00 a.m - 17:00 horas,09:00 a.m - 13:00 horas,-77.0687196,-12.0930816
488,9091,SAN ANTON,210211,PUNO,AZANGARO,SAN ANTON,PLAZA DE ARMAS S/N,8:00 a.m - 17:00 horas,09:00 a.m - 13:00 horas,-70.3173737,-14.583353400000002
489,9505,SANTIAGO,80106,CUSCO,CUSCO,SANTIAGO,AV. GIRALDO RUIZ CARO S/N ESQUINA CON CALLE LIMA,8:00 a.m - 17:00 horas,09:00 a.m - 13:00 horas,-71.98278990000001,-13.5258266
490,9506,CORTE SUPERIOR DE JUSTICIA DE CUSCO,80101,CUSCO,CUSCO,CUSCO,AV. EL SOL N° 239,8:00 a.m - 17:00 horas,-,-71.9778955,-13.518835099999999
491,9507,SAN SEBASTIAN,80105,CUSCO,CUSCO,SAN SEBASTIAN,AV. CUSCO N° 142 C,8:00 a.m - 17:00 horas,09:00 a.m - 13:00 horas,-71.932384,-13.5314358
492,9508,CORTE SUPERIOR DE JUSTICIA DE ABANCAY,30101,APURIMAC,ABANCAY,ABANCAY,AV. DIAZ BARCENA N° 100,8:00 a.m - 17:00 horas,09:00 a.m - 13:00 horas,-72.8768862,-13.635141800000001
493,9509,SAN JERONIMO,30213,APURIMAC,ANDAHUAYLAS,SAN JERONIMO,AV. LEONCIO PRADO N° 104,8:00 a.m - 17:00 horas,09:00 a.m - 13:00 horas,-73.3655383,-13.651802900000002
494,9510,LAS AMERICAS - ABANCAY,30101,APURIMAC,ABANCAY,ABANCAY,AVENIDA ARGENTINA N° 200 CENTRO POBLADO MENOR LAS AMERICAS,8:00 a.m - 17:00 horas,09:00 a.m - 13:00 horas,-72.88810840000001,-13.633167199999999
495,9514,CORTE SUPERIOR DE JUSTICIA DE CHACHAPOYAS,10101,AMAZONAS,CHACHAPOYAS,CHACHAPOYAS,JR. TRIUNFO N° 592,8:00 a.m - 17:00 horas,-,-77.8612545,-6.2311583
496,9515,UGEL JAEN,60801,CAJAMARCA,JAEN,JAEN,"CALLE MARIA PARADO DE BELLIDO N° 406, SECTOR MORRO SOLAR",8:00 a.m - 17:00 horas,09:00 a.m - 13:00 horas,-78.8057776,-5.7165422
497,9523,MTC - JUNIN,120107,JUNIN,HUANCAYO,CHILCA,AV. ARTERIAL N° 376,8:00 a.m - 17:00 horas,09:00 a.m - 13:00 horas,-75.2058411,-12.0823783
498,9525,CORTE SUPERIOR DE JUSTICIA DE AYACUCHO,50101,AYACUCHO,HUAMANGA,AYACUCHO,PORTAL CONSTITUCION N° 209,8:00 a.m - 17:00 horas,09:00 a.m - 13:00 horas,-74.2264066,-13.160760199999999
499,9530,CORTE SUPERIOR DE JUSTICIA DE LORETO,160101,LORETO,MAYNAS,IQUITOS,AV. ALMIRANTE MIGUEL GRAU SEMINARIO N° 720,8:00 a.m - 17:00 horas,-,-73.2442856,-3.7285494
500,9531,MTC - CERRO DE PASCO,190113,PASCO,PASCO,YANACANCHA,AV. EL MINERO N° 400,8:00 a.m - 17:00 horas,09:00 a.m - 13:00 horas,-76.2660998,-10.6698671
501,9532,MUNICIPALIDAD DISTRITAL DE MORALES,220910,SAN MARTIN,SAN MARTIN,MORALES,JR. TARAPOTO N° 158,8:00 a.m - 17:00 horas,09:00 a.m - 13:00 horas,-76.3828089,-6.4784277
502,9533,MANANTAY - PUCALLPA,250107,UCAYALI,CORONEL PORTILLO,MANANTAY,AV. TUPAC AMARU N° 703,8:00 a.m - 17:00 horas,09:00 a.m - 13:00 horas,-74.5399205,-8.4005754
503,9537,UNIVERSIDAD SAN LUIS GONZAGA DE ICA,110101,ICA,ICA,ICA,AV. SAN MARTIN 290,8:00 a.m - 17:00 horas,09:00 a.m - 13:00 horas,-75.7303272,-14.065787099999998
504,9539,MINISTERIO DE TRANSPORTE Y COMUNICACIONES DE PIURA,200101,PIURA,PIURA,PIURA,PASAJE LOS CEIBOS N° 103 - URB. SANTA ISABEL,8:00 a.m - 17:00 horas,09:00 a.m - 13:00 horas,-80.63069709999999,-5.1859025
505,9542,CORTE SUPERIOR DE JUSTICIA DE TUMBES,240101,TUMBES,TUMBES,TUMBES,CARRETERA PANAMERICANA KM. 4.5,8:00 a.m - 17:00 horas,-,-80.4289153,-3.5532937999999996
506,9543,COLEGIO DE LA POLICIA NACIONAL BASILIO RAMIREZ PEÑA,200101,PIURA,PIURA,PIURA,PROLONGACION AV. GRAU N° 200 - URB. LAS MERCEDES - SECTOR OESTE DE PIURA,8:00 a.m - 17:00 horas,09:00 a.m - 13:00 horas,-80.6503685,-5.1882281
507,9550,ELECTRO PUNO - JULIACA,211101,PUNO,SAN ROMAN,JULIACA,ESQUINA DEL JR. SAN MARTIN Y AV. CIRCUNVALACION,8:00 a.m - 17:00 horas,09:00 a.m - 13:00 horas,-70.1182234,-15.501412
508,9552,SERPOST TRUJILLO,130101,LA LIBERTAD,TRUJILLO,TRUJILLO,JR. INDEPENDENCIA N° 286,8:00 a.m - 17:00 horas,09:00 a.m - 13:00 horas,-79.03038240000001,-8.1130893
509,9553,VISTA ALEGRE,110305,ICA,NASCA,VISTA ALEGRE,JIRON CHICLAYO S/N,8:00 a.m - 17:00 horas,09:00 a.m - 13:00 horas,-74.94228879999999,-14.8466956
510,9554,CHAO,131202,LA LIBERTAD,VIRU,CHAO,AV. CESAR VALLEJO N° 380,8:00 a.m - 17:00 horas,09:00 a.m - 13:00 horas,-78.6788059,-8.538413199999999
511,9559,TEATRO MUNICIPAL ESPINAR,80801,CUSCO,ESPINAR,ESPINAR,ESQUINA AVENIDA SAN MARTIN CON PASAJE TEATRO,8:00 a.m - 17:00 horas,09:00 a.m - 13:00 horas,-71.412125,-14.7895845
512,9560,CENTRO CIVICO MUNICIPALIDAD DISTRITAL CARMEN ALTO,50104,AYACUCHO,HUAMANGA,CARMEN ALTO,AV. LIBERTADORES S/N,8:00 a.m - 17:00 horas,09:00 a.m - 13:00 horas,-74.22139190000001,-13.181390200000001
513,9563,EL DORADO,160101,LORETO,MAYNAS,IQUITOS,AV. YAVARI N° 363,8:00 a.m - 17:00 horas,09:00 a.m - 13:00 horas,-73.24260500000001,-3.7453392
514,9564,ACLAS AGUAMIRO,160201,LORETO,ALTO AMAZONAS,YURIMAGUAS,CALLE UCAYALI S/N CUADRA 6,8:00 a.m - 17:00 horas,09:00 a.m - 13:00 horas,-76.11272679999999,-5.8899453
515,9569,ANCO HUALLO - URIPA,30602,APURIMAC,CHINCHEROS,ANCO_HUALLO,AV. RICARDO PALMA S/N - PLAZA DE ARMAS,8:00 a.m - 17:00 horas,09:00 a.m - 13:00 horas,-73.67515329999999,-13.528321300000002
516,9570,UGEL HUANUCO,100101,HUANUCO,HUANUCO,HUANUCO,JIRON PROGRESO N° 462,8:00 a.m - 17:00 horas,09:00 a.m - 13:00 horas,-76.23846540000001,-9.925887199999998
517,9571,MUNICIPALIDAD DE PASCO,190101,PASCO,PASCO,CHAUPIMARCA,PLAZUELA MUNICIPAL S/N - CHAUPIMARCA,8:00 a.m - 17:00 horas,09:00 a.m - 13:00 horas,-76.25743059999999,-10.686226
518,9573,SAN JERONIMO - CUSCO,80104,CUSCO,CUSCO,SAN JERONIMO,PROLONGACION AVENIDA DE LA CULTURA,8:00 a.m - 17:00 horas,09:00 a.m - 13:00 horas,-71.927565,-13.5315022
519,9574,MUNICIPALIDAD DE TOCACHE,221001,SAN MARTIN,TOCACHE,TOCACHE,JR. PROGRESO N° 198,8:00 a.m - 17:00 horas,09:00 a.m - 13:00 horas,-76.5095576,-8.188302
520,9575,DIRECCION REGIONAL DE EDUCACION MADRE DE DIOS,170101,MADRE DE DIOS,TAMBOPATA,TAMBOPATA,AV. 28 DE JULIO 5TA CUADRA,8:00 a.m - 17:00 horas,09:00 a.m - 13:00 horas,-69.186312,-12.5939257
521,9576,TERMINAL MUNICIPAL TERRESTRE - SICUANI,80601,CUSCO,CANCHIS,SICUANI,CALLE CESAR ALVAREZ S/N,8:00 a.m - 17:00 horas,09:00 a.m - 13:00 horas,-71.2320373,-14.2746505
522,9577,MUNICIPALIDAD DE,80901,CUSCO,LA CONVENCION,SANTA ANA,AV. FRANCISCO ZUBIAGAS,8:00 a.m - 17:00 horas,09:00 a.m - 13:00 horas,-117.867653,33.7454725
523,9578,DIRECCION REGIONAL DE AGRICULTURA UCAYALI,250101,UCAYALI,CORONEL PORTILLO,CALLERIA,JIRON AMAZONAS N° 753,8:00 a.m - 17:00 horas,09:00 a.m - 13:00 horas,-74.5448635,-8.3792869
524,9579,UNIVERSIDAD NACIONAL DE LA AMAZONIA PERUANA,160101,LORETO,MAYNAS,IQUITOS,JR. ALFEREZ WEST N° 363,8:00 a.m - 17:00 horas,09:00 a.m - 13:00 horas,-73.2516326,-3.7436735
525,9580,MUNICIPALIDAD SAN JUAN BAUTISTA,50110,AYACUCHO,HUAMANGA,SAN JUAN BAUTISTA,JR. MUNIVE S/N PLAZOLETA SAN JUAN BAUTISTA,8:00 a.m - 17:00 horas,09:00 a.m - 13:00 horas,-74.22363809999999,-13.1665652
526,9582,UNIVERSIDAD NACIONAL DEL ALTIPLANO,210101,PUNO,PUNO,PUNO,AV. FLORAL N° 1335,8:00 a.m - 16:30 horas,09:00 a.m - 13:00 horas,-70.0169753,-15.8286655
527,9584,MUNICIPALIDAD DISTRITAL DE SACHACA,40117,AREQUIPA,AREQUIPA,SACHACA,AV. FERNANDINI S/N,8:00 a.m - 17:00 horas,09:00 a.m - 13:00 horas,-71.56266529999999,-16.4175332
528,9585,MUNICIPALIDAD DISTRITAL DE YURA,40128,AREQUIPA,AREQUIPA,YURA,"AV. ASOCIACION CIUDAD DE DIOS ZONA 3 SECTOR B, CENTRO CIVICO MDY. - KM 15.5",8:00 a.m - 17:00 horas,09:00 a.m - 13:00 horas,-71.62386690000001,-16.3022478
529,9586,MUNICIPALIDAD DISTRITAL DE GROCIO PRADO,110206,ICA,CHINCHA,GROCIO PRADO,PLAZA DE ARMAS N° 101,8:00 a.m - 17:00 horas,09:00 a.m - 13:00 horas,-76.1556175,-13.398238899999999
530,9588,MUNICIPALIDAD DISTRITAL EL PORVENIR,130102,LA LIBERTAD,TRUJILLO,EL PORVENIR,AV. SANCHEZ CARRION N° 500,8:00 a.m - 17:00 horas,09:00 a.m - 13:00 horas,-79.0017426,-8.0856182
531,9589,CORTE SUPERIOR DE JUSTICIA DE HUANUCO,100101,HUANUCO,HUANUCO,HUANUCO,JR. DAMASO BERAUN N° 652,8:00 a.m - 17:00 horas,09:00 a.m - 13:00 horas,-76.2400206,-9.9288242
532,9590,SANTA ROSA,210808,PUNO,MELGAR,SANTA ROSA,"CALLE AREQUIPA S/N, ESQUINA CON JIRON FERROCARRIL",8:00 a.m - 17:00 horas,09:00 a.m - 13:00 horas,-71.537451,-16.409047400000002
533,9593,MUNICIPALIDAD PROVINCIAL DE CAJAMARCA,60101,CAJAMARCA,CAJAMARCA,CAJAMARCA,"AV. ALAMEDA DE LOS INCAS N° 215 ESQUINA CON LA CALLE CAPAC YUPANQUI - ""PREDIO BELLAVISTA"" (QHAPAC ÑAN)",8:00 a.m - 17:00 horas,09:00 a.m - 13:00 horas,-78.4949112,-7.1644947
534,9594,KIMBIRI,80907,CUSCO,LA CONVENCION,KIMBIRI,JR. JOSE OLAYA 151 - 153,8:00 a.m - 17:00 horas,09:00 a.m - 13:00 horas,-73.7894285,-12.6196341
535,9595,MUNICIPALIDAD DISTRITAL DE MOLINO,100803,HUANUCO,PACHITEA,MOLINO,JR. JUAN VELAZCO ALVARADO N° 349,8:00 a.m - 17:00 horas,09:00 a.m - 13:00 horas,-76.0162038,-9.909696
536,9596,MUNICIPALIDAD PROVINCIAL DE MELGAR,210801,PUNO,MELGAR,AYAVIRI,JIRON TEATRO N° 102,8:00 a.m - 17:00 horas,09:00 a.m - 13:00 horas,-70.5890208,-14.8817227
537,9597,DIRECCION REGIONAL DE TRANSPORTES Y COMUNICACIONES PUNO,210101,PUNO,PUNO,PUNO,JR. LIMA N° 944,8:00 a.m - 16:30 horas,09:00 a.m - 13:00 horas,-70.0270708,-15.8426397
538,9598,MUNICIPALIDAD DISTRITAL DE LAJAS,60410,CAJAMARCA,CHOTA,LAJAS,JR. JOSE GALVEZ S/N,8:00 a.m - 17:00 horas,09:00 a.m - 13:00 horas,-78.7345296,-6.560469099999999
539,9599,MUNICIPALIDAD DISTRITAL DE SAPALLANGA,120133,JUNIN,HUANCAYO,SAPALLANGA,AV. RICARDO PALMA S/N,8:00 a.m - 17:00 horas,09:00 a.m - 13:00 horas,-75.1820931,-12.1498983
540,9600,MUNICIPALIDAD DISTRITAL DE MOCHE,130107,LA LIBERTAD,TRUJILLO,MOCHE,JR. FRANCISCO BOLOGNESI N° 359,8:00 a.m - 17:00 horas,09:00 a.m - 13:00 horas,-79.009136,-8.1713409
541,9601,LA TINGUIÑA,110102,ICA,ICA,LA TINGUIÑA,AV. ARMANDO REVOREDO N° 172,8:00 a.m - 17:00 horas,09:00 a.m - 13:00 horas,-75.7106952,-14.0401614
542,9604,MUNICIPALIDAD DISTRITAL DE CAYMA,40103,AREQUIPA,AREQUIPA,CAYMA,AV. RAMON CASTILLA S/N ESTADIO LA TOMILLA TIENDA N° 13,8:00 a.m - 17:00 horas,09:00 a.m - 13:00 horas,-71.5447613,-16.3631811
543,9607,MUNICIPALIDAD DISTRITAL TUPAC AMARU INCA,110508,ICA,PISCO,TUPAC AMARU INCA,INTERSECCION DE LA AV. MAYTA CAPAC Y JR. HUASCAR MZ 43 LT 2,8:00 a.m - 17:00 horas,09:00 a.m - 13:00 horas,-76.14828100000001,-13.713086800000001
544,9608,DIRECCION REGIONAL DE TRANSPORTES Y COMUNICACIONES DE AYACUCHO,50115,AYACUCHO,HUAMANGA,JESUS NAZARENO,JR. MANUEL GONZALES PRADA N° 325,8:00 a.m - 17:00 horas,09:00 a.m - 13:00 horas,-74.21759940000001,-13.1565427
545,9609,MUNICIPALIDAD PROVINCIAL SAN ROMAN  SERENAZGO JULIACA,211101,PUNO,SAN ROMAN,JULIACA,AV. TACNA N° 344,8:00 a.m - 17:00 horas,09:00 a.m - 13:00 horas,-70.1268621,-15.502877100000001
546,9610,UNIVERSIDAD NACIONA SAN ANTONIO ABAD DEL CUSCO,80101,CUSCO,CUSCO,CUSCO,AV. DE LA CULTURA N° 733,8:00 a.m - 17:00 horas,09:00 a.m - 13:00 horas,-71.9583208,-13.52193
547,810,CHILLIA,130803,LA LIBERTAD,PATAZ,CHILLIA,JR. CESAR VALLEJO S/N MZ. 31 LT. 1,8:00 a.m - 17:00 horas,09:00 a.m - 13:00 horas,-77.5146453,-8.1243632
548,69,SAN JUAN DE LURIGANCHO 2,150132,LIMA,LIMA,SAN JUAN DE LURIGANCHO,AV. PROCERES DE LA INDEPENDENCIA N° 2075 AL N° 2077 - URB. SAN HILARION,7:00 a.m - 17:00 horas,09:00 a.m - 13:00 horas,-77.0096983,-11.998311
549,390,PARQUE INDUSTRIAL EL TAMBO,120114,JUNIN,HUANCAYO,EL TAMBO,JR. ATALAYA N° 565 Y 567 MZ. B LOTE 8,8:00 a.m - 17:00 horas,09:00 a.m - 13:00 horas,-75.2252766,-12.0463088
550,50,ATE,150103,LIMA,LIMA,ATE,AV BERNARDINO RIVADIVIA N° 162-164,8:00 a.m - 17:00 horas,09:00 a.m - 13:00 horas,-76.92642,-12.0292663
551,413,LLOCHEGUA,50408,AYACUCHO,HUANTA,LLOCHEGUA,CALLE 09 MZ. H1 N° 10,8:00 a.m - 17:00 horas,09:00 a.m - 13:00 horas,-73.90805809999999,-12.4095046
552,559,ISLA SANTA ROSA,160403,LORETO,MARISCAL RAMON CASTILLA,YAVARI,"AV. MARISCAL RAMÓN CASTILLA S/N, MZ 10 LT. 12",8:00 a.m - 17:00 horas,09:00 a.m - 13:00 horas,-72.1416132,-4.3434745999999995
553,555,CODO DEL POZUZO,100902,HUANUCO,PUERTO INCA,CODO DEL POZUZO,JR. 19 DE NOVIEMBRE S/N PLAZA DE ARMAS,8:00 a.m - 17:00 horas,09:00 a.m - 13:00 horas,-75.4621467,-9.673406199999999
